Radio Name(A),  Opt Name(B),  Ra Radio,  Dec Radio,  Area observed,  Area detectable, Area detectable (totF), flux(mJy),peak_flux(mJy),  log(lum)-W/Hz,  peak log(lum)-W/Hz , log(lum)-W/Hz-detectable,  num Opt,   num opt detectable,,num opt couldDect (totF),  Ra NED,  Dec NED,  z,  MagNED, objID SDSS,  Ra SDSS,  Dec SDSS,  Mag_u,  Mag_g,  Mag_r,  Mag_i,  Mag_z, fracDeV_u,  fracDeV_g,  fracDeV_r,  fracDeV_i,  fracDeV_z,  Note,  u-r
A1,  B1,  255.89829,  78.62892,  0.08646,  7.08936,  10.25142,  155.0,  68.3,  21.059,  20.703,  20.180,  14.0,  235.0,  255.0,  255.90000,  78.62890,  0.054,  16.1V,  1237656565428060275,  255.89948,  78.62891,  16.70,  14.67,  13.73,  13.27,  12.95,  0.74221,  0.75625,  0.78325,  0.80744,  0.80548,  None,  2.97
A2,  B2,  255.89138,  78.62978,  0.08382,  10.25142,  10.25142,  6585.0,  296.7,  22.687,  21.341,  20.181,  13.0,  255.0,  255.0,  255.89210,  78.63000,  0.056,  13.8V,  1237656565428060276,  255.89148,  78.62987,  19.80,  17.66,  16.69,  16.25,  15.81,  0.00000,  0.00000,  0.00000,  0.00000,  0.00000,  None,  3.12
A3,  B3,  255.87238,  78.63203,  0.07864,  10.25142,  10.25142,  121250.0,  22135.9,  23.952,  23.213,  20.181,  11.0,  255.0,  255.0,  255.87290,  78.63190,  0.059,  16.0V,  1237656565428060273,  255.87240,  78.63194,  18.00,  15.88,  14.92,  14.46,  14.10,  0.97210,  1.00000,  1.00000,  1.00000,  1.00000,  None,  3.08
A4,  B4,  255.76154,  78.59875,  0.33822,  10.25142,  10.25142,  71953.0,  1659.2,  23.725,  22.088,  20.180,  49.0,  255.0,  255.0,  255.76210,  78.59890,  0.055,  15.2V,  1237656565428060594,  255.76157,  78.59868,  17.80,  15.85,  14.91,  14.47,  14.12,  1.00000,  1.00000,  1.00000,  1.00000,  1.00000,  None,  2.89
A5,  B5,  255.87517,  78.66517,  0.00735,  10.25142,  10.25142,  49700.0,  2821.5,  23.565,  22.319,  20.200,  3.0,  255.0,  255.0,  255.87540,  78.66530,  0.059,  15.5V,  1237656565428060462,  255.87521,  78.66506,  18.20,  16.12,  15.14,  14.68,  14.34,  1.00000,  1.00000,  1.00000,  1.00000,  1.00000,  None,  3.06
A6,  B6,  255.21750,  78.68928,  1.19041,  10.25142,  10.25142,  9253.0,  1790.2,  22.834,  22.121,  20.219,  106.0,  255.0,  255.0,  255.21750,  78.68920,  0.058,  16.0V,  1237656565427995029,  255.21758,  78.68920,  18.60,  16.55,  15.58,  15.10,  14.71,  1.00000,  0.96252,  0.96668,  1.00000,  1.00000,  None,  3.02
A7,  B7,  256.41479,  78.62625,  0.63082,  5.79749,  10.25142,  775.0,  50.0,  21.758,  20.567,  20.192,  76.0,  221.0,  255.0,  256.41290,  78.62560,  0.054,  15.59,  1237663230678794604,  256.41464,  78.62616,  18.01,  16.20,  15.32,  14.86,  14.56,  0.62915,  0.98728,  1.00000,  1.00000,  1.00000,  None,  2.69
A8,  B8,  256.73421,  78.68597,  1.48910,  10.25142,  10.25142,  9190.0,  365.9,  22.832,  21.432,  20.235,  121.0,  255.0,  255.0,  256.73460,  78.68580,  0.056,  15.9V,  1237663269868994759,  256.73431,  78.68588,  18.55,  16.46,  15.51,  15.09,  14.76,  1.00000,  0.99852,  1.00000,  0.93264,  0.98731,  None,  3.04
A9,  B9,  256.68008,  78.59925,  1.55349,  10.25142,  10.25142,  1451.0,  846.6,  22.030,  21.796,  20.238,  124.0,  255.0,  255.0,  256.68040,  78.59920,  0.050,  16.4V,  1237663230678794280,  256.68011,  78.59919,  18.47,  17.98,  24.81,  16.32,  15.92,  1.00000,  1.00000,  0.00000,  1.00000,  1.00000,  None,  -6.33
A10,  B10,  255.98562,  78.74553,  0.37430,  0.01135,  0.62345,  18.5,  18.0,  20.135,  20.123,  20.181,  53.0,  4.0,  74.0,  255.98580,  78.74560,  0.057,  16.1V,  1237663269868929406,  255.98562,  78.74541,  18.81,  16.61,  15.65,  15.19,  14.85,  1.00000,  0.82666,  0.83170,  0.85806,  0.75566,  None,  3.16
A11,  B11,  255.56242,  78.59647,  0.60303,  10.25142,  10.25142,  524.0,  150.7,  21.588,  21.046,  20.191,  71.0,  255.0,  255.0,  255.56290,  78.59640,  0.062,  15.7V,  1237656565428060249,  255.56244,  78.59639,  18.44,  16.42,  15.50,  15.07,  14.71,  1.00000,  1.00000,  1.00000,  1.00000,  1.00000,  None,  2.94
A12,  B12,  255.84267,  78.78222,  0.80691,  10.25142,  10.25142,  1140.0,  213.4,  21.925,  21.197,  20.200,  89.0,  255.0,  255.0,  255.84290,  78.78220,  0.065,  16.9V,  1237656565427994941,  255.84289,  78.78213,  19.03,  17.37,  16.54,  16.04,  15.65,  0.00000,  0.00000,  0.03959,  0.07749,  0.16729,  None,  2.49
A13,  B13,  256.20029,  78.64156,  0.20226,  10.25142,  10.25142,  11792.0,  4240.4,  22.940,  22.496,  20.177,  35.0,  255.0,  255.0,  256.20040,  78.64140,  0.063,  15.1V,  1237663269868929086,  256.20036,  78.64143,  17.75,  15.74,  14.77,  14.30,  13.97,  0.93977,  1.00000,  1.00000,  1.00000,  0.98097,  None,  2.98
A14,  B14,  255.34846,  78.68753,  0.79948,  10.25142,  10.25142,  1241.0,  150.2,  21.962,  21.045,  20.200,  87.0,  255.0,  255.0,  255.34710,  78.68750,  0.054,  16.1V,  1237656565427995051,  255.34729,  78.68753,  17.79,  16.42,  15.77,  15.39,  15.12,  0.00000,  0.00000,  0.00000,  0.00000,  0.04353,  None,  2.02
A15,  B15,  254.57683,  78.49278,  6.03218,  10.25142,  10.25142,  3189.0,  272.8,  22.372,  21.304,  20.634,  223.0,  255.0,  255.0,  254.57670,  78.49280,  0.060,  15.2V,  1237655749380800844,  254.57656,  78.49268,  17.44,  15.68,  15.07,  14.67,  14.45,  0.15878,  0.04771,  0.10357,  0.13970,  0.27747,  None,  2.37
A16,  B16,  255.79850,  78.67494,  0.04438,  1.09044,  2.59702,  28.0,  23.9,  20.315,  20.247,  20.186,  9.0,  100.0,  162.0,  255.79960,  78.67500,  0.052,  16.4V,  1237656565428060200,  255.79899,  78.67500,  18.74,  16.78,  15.86,  15.41,  15.08,  0.97205,  0.97138,  0.92280,  0.95324,  0.90743,  None,  2.88
A17,  B17,  256.06771,  78.67922,  0.05166,  9.23602,  10.25142,  118.0,  111.6,  20.940,  20.916,  20.184,  9.0,  251.0,  255.0,  256.06830,  78.67920,  0.052,  16.1V,  1237663269868929392,  256.06788,  78.67921,  18.61,  16.62,  15.69,  15.22,  14.87,  0.50772,  1.00000,  0.95669,  1.00000,  0.93070,  opt & radi not in the same position,  2.92
A18,  B18,  256.11221,  78.64036,  0.11539,  1.13628,  3.17813,  26.0,  23.7,  20.283,  20.243,  20.179,  18.0,  103.0,  178.0,  256.11330,  78.64030,  0.059,  13.8V,  1237656565428060284,  256.11324,  78.64039,  16.90,  14.38,  13.41,  12.92,  12.61,  0.33919,  0.42305,  0.48180,  0.51844,  0.44913,  None,  3.50
A19,  B19,  255.70408,  78.64133,  0.15591,  3.91258,  2.89808,  29.0,  34.06,  20.331,  20.400,  20.177,  26.0,  193.0,  174.0,  255.70540,  78.64140,  0.056,  16.5V,  1237656565428060521,  255.70475,  78.64132,  19.20,  17.13,  16.19,  15.75,  15.39,  0.90430,  0.90847,  0.94680,  0.92495,  0.93436,  None,  3.01
A20,  B20,  256.23592,  78.71828,  0.36800,  10.25142,  10.25142,  426.0,  127.3,  21.498,  20.973,  20.181,  52.0,  255.0,  255.0,  256.23750,  78.71830,  0.062,  17.0R,  1237663269868929591,  256.23663,  78.71825,  19.44,  18.06,  17.37,  16.96,  16.71,  0.34424,  0.00000,  0.00974,  0.02126,  0.10916,  None,  2.07
A21,  B21,  255.57375,  78.76450,  0.85501,  6.02184,  6.36650,  64.0,  52.7,  20.674,  20.590,  20.202,  93.0,  222.0,  228.0,  255.57420,  78.76440,  0.066,  16.8V,  1237656565427994915,  255.57372,  78.76440,  19.21,  17.13,  16.28,  15.88,  15.56,  0.23442,  0.55026,  0.61350,  0.67527,  0.70709,  None,  2.93
A22,  B22,  256.39054,  78.58661,  0.86194,  10.25142,  10.25142,  180.0,  160.3,  21.123,  21.073,  20.203,  93.0,  255.0,  255.0,  256.39130,  78.58670,  0.063,  15.6V,  1237663230678728929,  256.39099,  78.58659,  18.14,  16.16,  15.20,  14.73,  14.39,  0.79613,  0.79399,  0.83799,  0.89652,  0.90895,  None,  2.94
A23,  B23,  255.57625,  78.76778,  0.88942,  10.25142,  10.25142,  2113.0,  457.1,  22.193,  21.528,  20.204,  95.0,  255.0,  255.0,  255.57710,  78.76780,  0.065,  16.1V,  1237656565427994914,  255.57692,  78.76759,  18.02,  16.65,  15.95,  15.52,  15.25,  0.08641,  0.31547,  0.35995,  0.35964,  0.36107,  None,  2.07
A24,  B24,  255.37346,  78.60208,  0.95995,  10.25142,  10.25142,  145.0,  140.2,  21.030,  21.015,  20.207,  97.0,  255.0,  255.0,  255.37380,  78.60190,  0.060,  16.4V,  1237656565428060547,  255.37368,  78.60206,  18.89,  16.89,  15.94,  15.47,  15.09,  0.59399,  1.00000,  1.00000,  1.00000,  1.00000,  None,  2.95
A25,  B25,  256.20229,  78.80589,  1.31052,  10.25142,  10.25142,  203.0,  175.6,  21.176,  21.113,  20.225,  113.0,  255.0,  255.0,  256.20290,  78.80580,  0.066,  15.7V,  1237663269868929533,  256.20277,  78.80586,  18.24,  16.24,  15.27,  14.82,  14.51,  0.95669,  1.00000,  1.00000,  1.00000,  1.00000,  None,  2.97
A26,  B26,  256.30017,  78.80397,  1.42028,  10.25142,  10.25142,  462.0,  201.2,  21.533,  21.172,  20.231,  118.0,  255.0,  255.0,  256.30000,  78.80390,  0.066,  16.8V,  1237663269868994713,  256.29969,  78.80386,  18.50,  17.22,  16.59,  16.21,  16.00,  0.85290,  0.41011,  0.40574,  0.35737,  0.44479,  None,  1.91
A27,  B27,  255.13358,  78.67000,  1.45193,  6.83698,  6.21631,  55.0,  59.8,  20.609,  20.645,  20.233,  119.0,  233.0,  228.0,  255.13420,  78.67000,  0.060,  15.9V,  1237656565427995060,  255.13378,  78.66998,  18.40,  16.51,  15.58,  15.13,  14.79,  1.00000,  1.00000,  1.00000,  1.00000,  1.00000,  None,  2.82
A28,  B28,  255.24613,  78.74983,  1.47216,  10.25142,  10.25142,  396.0,  400.1,  21.466,  21.470,  20.234,  121.0,  255.0,  255.0,  255.24630,  78.74970,  0.053,  15.58,  1237656565427994887,  255.24649,  78.74981,  18.25,  16.28,  15.37,  14.90,  14.53,  0.74391,  0.87491,  0.96648,  1.00000,  1.00000,  None,  2.88
A29,  B29,  255.25008,  78.75856,  1.54932,  8.14338,  10.25142,  157.0,  84.3,  21.064,  20.794,  20.238,  124.0,  243.0,  255.0,  255.24960,  78.75890,  0.057,  17.3R,  1237656565427994707,  255.25023,  78.75856,  19.49,  18.17,  17.59,  17.21,  16.95,  1.00000,  0.44815,  0.36932,  0.49804,  0.33577,  no id in NED I added to NED list since it is very close to 27,  1.91
A30,  B30,  255.12392,  78.63511,  1.54978,  3.05480,  5.71547,  49.0,  29.5,  20.558,  20.338,  20.238,  124.0,  177.0,  220.0,  255.12210,  78.63470,  0.059,  16.4V,  1237656565428060420,  255.12230,  78.63464,  18.87,  17.07,  16.12,  15.65,  15.27,  1.00000,  1.00000,  1.00000,  1.00000,  1.00000,  None,  2.75
A31,  B31,  256.54846,  78.54711,  1.72048,  10.25142,  10.25142,  292.0,  277.5,  21.334,  21.311,  20.247,  133.0,  255.0,  255.0,  256.54920,  78.54720,  0.061,  15.6V,  1237663230678794582,  256.54859,  78.54714,  18.16,  16.09,  15.11,  14.64,  14.29,  1.00000,  1.00000,  1.00000,  1.00000,  1.00000,  None,  3.05
A32,  B32,  256.24379,  78.83314,  1.85654,  9.42975,  10.25142,  151.0,  115.4,  21.047,  20.930,  20.255,  138.0,  252.0,  255.0,  256.24040,  78.83470,  0.065,  16.27,  1237663269868994576,  256.24224,  78.83555,  18.18,  16.24,  15.53,  15.34,  15.24,  0.00000,  0.00000,  1.00000,  0.00000,  1.00000,  None,  2.65
A33,  B33,  255.97329,  78.48656,  1.91858,  10.25142,  10.25142,  195.0,  159.2,  21.158,  21.070,  20.259,  141.0,  255.0,  255.0,  255.97380,  78.48670,  0.054,  17.8V,  1237656565428125957,  255.97333,  78.48651,  19.54,  18.18,  17.59,  17.32,  17.05,  0.33960,  0.09630,  0.11679,  0.08679,  0.01648,  None,  1.94
A34,  B34,  255.89346,  78.84858,  1.95836,  10.25142,  10.25142,  801.0,  190.4,  21.772,  21.148,  20.262,  143.0,  255.0,  255.0,  255.89380,  78.84860,  0.063,  16.6V,  1237663231215599976,  255.89348,  78.84855,  18.35,  16.96,  16.28,  15.87,  15.61,  0.00000,  0.00000,  0.00000,  0.00000,  0.10528,  None,  2.08
A35,  B35,  256.86104,  78.60622,  2.19625,  6.31900,  10.25142,  273.0,  56.2,  21.304,  20.618,  20.277,  148.0,  228.0,  255.0,  256.86250,  78.60580,  0.059,  16.6V,  1237663230678794442,  256.86241,  78.60594,  19.10,  17.17,  16.38,  15.95,  15.70,  0.00000,  0.07663,  0.22443,  0.33323,  0.45645,  None,  2.72
A36,  B36,  256.22996,  78.85225,  2.23461,  10.25142,  10.25142,  376.0,  206.0,  21.443,  21.182,  20.279,  151.0,  255.0,  255.0,  256.23130,  78.85220,  0.067,  17.8V,  1237663269868994718,  256.23058,  78.85223,  19.81,  18.20,  17.44,  17.04,  16.77,  0.00000,  0.00000,  0.07077,  0.10203,  0.43212,  None,  2.37
A37,  B37,  255.69417,  78.86272,  2.39697,  10.25142,  10.25142,  2104.0,  1726.2,  22.191,  22.105,  20.291,  155.0,  255.0,  255.0,  255.69500,  78.86280,  0.055,  15.7V,  1237656565427929453,  255.69454,  78.86272,  18.32,  16.29,  15.35,  14.89,  14.52,  0.96485,  1.00000,  1.00000,  1.00000,  1.00000,  None,  2.98
A38,  B38,  256.61725,  78.82067,  2.45931,  10.25142,  10.25142,  927.0,  427.2,  21.835,  21.499,  20.295,  156.0,  255.0,  255.0,  256.61830,  78.82080,  0.063,  17.6V,  1237663269868994787,  256.61822,  78.82077,  19.47,  17.97,  17.28,  16.87,  16.56,  0.39028,  0.21562,  0.17569,  0.11411,  0.33976,  None,  2.20
A39,  B39,  255.55050,  78.85917,  2.51456,  10.25142,  10.25142,  1364.0,  847.9,  22.003,  21.797,  20.299,  160.0,  255.0,  255.0,  255.55130,  78.85920,  0.064,  16.4V,  1237656565427929429,  255.55095,  78.85913,  18.81,  16.98,  16.10,  15.59,  15.21,  0.00000,  0.00000,  0.12774,  0.21703,  0.38363,  None,  2.71
A40,  B40,  255.39342,  78.84628,  2.55571,  10.25142,  10.25142,  631.0,  463.5,  21.668,  21.534,  20.302,  161.0,  255.0,  255.0,  255.39290,  78.84610,  0.065,  16.6R,  1237656565427929436,  255.39375,  78.84627,  19.33,  17.68,  16.79,  16.25,  15.90,  0.08632,  0.31054,  0.63142,  0.85552,  1.00000,  None,  2.54
A41,  B41,  256.38988,  78.85464,  2.55877,  10.25142,  10.25142,  4175.0,  2969.2,  22.489,  22.341,  20.302,  161.0,  255.0,  255.0,  256.39000,  78.85470,  0.066,  15.3V,  1237663269868994741,  256.38999,  78.85462,  18.10,  16.68,  16.01,  15.55,  15.35,  0.24223,  0.02323,  0.28457,  0.37100,  0.46651,  None,  2.09
A42,  B42,  257.04629,  78.65342,  2.84764,  2.37562,  4.87040,  40.0,  27.2,  20.470,  20.303,  20.324,  170.0,  155.0,  209.0,  257.04540,  78.65330,  0.050,  17.6V,  1237663230678794779,  257.04511,  78.65344,  19.19,  18.01,  17.36,  17.01,  16.78,  0.30611,  0.22402,  0.14174,  0.16963,  0.06609,  None,  1.82
A43,  B43,  255.08483,  78.81061,  2.83827,  0.61372,  5.71547,  49.0,  19.7,  20.558,  20.163,  20.323,  168.0,  73.0,  220.0,  255.08130,  78.81030,  0.051,  16.13,  1237656565427929475,  255.08572,  78.81045,  18.71,  16.75,  15.80,  15.33,  14.96,  0.27495,  0.78992,  0.89488,  0.94709,  1.00000,  None,  2.91
A44,  B44,  255.10654,  78.82394,  2.99199,  10.25142,  10.25142,  231.0,  147.4,  21.232,  21.037,  20.335,  174.0,  255.0,  255.0,  255.10630,  78.82420,  0.051,  16.5R,  1237656565427929441,  255.10733,  78.82402,  19.36,  17.63,  16.85,  16.42,  16.07,  0.00000,  0.00000,  0.00000,  0.00000,  0.03732,  None,  2.50
A45,  B45,  256.81508,  78.50219,  3.40237,  10.25142,  10.25142,  1200.0,  643.3,  21.947,  21.677,  20.370,  180.0,  255.0,  255.0,  256.81580,  78.50220,  0.063,  17.2V,  1237663230678794662,  256.81509,  78.50217,  19.50,  17.78,  16.92,  16.40,  16.07,  0.00000,  0.00000,  0.00000,  0.00000,  0.06053,  None,  2.58
A46,  B46,  256.05950,  78.91006,  3.53583,  8.73413,  10.25142,  203.0,  102.4,  21.176,  20.879,  20.382,  184.0,  248.0,  255.0,  256.06040,  78.91000,  0.063,  18.2V,  1237663231215665398,  256.06043,  78.90996,  19.53,  18.48,  18.14,  17.80,  17.80,  0.00000,  0.22005,  0.34258,  0.35637,  0.21452,  None,  1.40
A47,  B47,  257.01250,  78.54406,  3.58035,  7.48490,  9.10463,  109.0,  70.2,  20.906,  20.715,  20.386,  185.0,  239.0,  251.0,  257.01330,  78.54420,  0.060,  18.0V,  1237663230678794725,  257.01286,  78.54410,  20.14,  18.52,  17.61,  17.14,  16.81,  0.25585,  0.00000,  0.00000,  0.06999,  0.17050,  None,  2.53
A48,  B48,  255.56883,  78.90294,  3.59148,  10.25142,  10.25142,  220.0,  987.8,  21.211,  21.863,  20.387,  186.0,  255.0,  255.0,  255.57040,  78.90310,  0.065,  17.8V,  1237656565427929379,  255.56978,  78.90294,  19.85,  18.45,  17.88,  17.45,  17.24,  0.97221,  0.21793,  0.40239,  0.25945,  0.31049,  None,  1.97
A49,  B49,  254.90550,  78.49481,  4.17927,  6.74831,  8.46154,  98.0,  66.3,  20.859,  20.690,  20.442,  196.0,  233.0,  244.0,  254.90630,  78.49530,  0.053,  16.4V,  1237655749380800875,  254.90598,  78.49520,  18.66,  16.97,  16.12,  15.68,  15.33,  0.12104,  0.11968,  0.31650,  0.36137,  0.46386,  None,  2.54
A50,  B50,  254.58692,  78.72347,  4.29273,  8.76537,  8.95419,  106.0,  102.9,  20.894,  20.881,  20.454,  198.0,  248.0,  250.0,  254.58670,  78.72390,  0.053,  ...,  1237655749380735063,  254.58735,  78.72351,  19.39,  17.68,  16.90,  16.49,  16.24,  0.28843,  0.23328,  0.33155,  0.58091,  0.52307,  None,  2.50
A51,  B51,  256.63942,  78.42208,  4.69822,  5.79749,  6.20397,  63.0,  50.0,  20.668,  20.567,  20.494,  205.0,  221.0,  228.0,  256.63750,  78.42220,  0.066,  18.0V,  1237663269332058258,  256.63838,  78.42226,  18.56,  16.62,  15.71,  15.23,  14.90,  0.65732,  0.55434,  0.47392,  0.52432,  0.59790,  None,  2.85
A52,  B52,  256.54883,  78.41042,  4.76447,  8.18332,  10.25142,  312.0,  86.3,  21.362,  20.804,  20.501,  207.0,  243.0,  255.0,  256.54790,  78.41060,  0.061,  17.8V,  1237663269332058626,  256.54938,  78.41042,  19.47,  18.15,  17.52,  17.13,  16.89,  0.05239,  0.00000,  0.00000,  0.00000,  0.00000,  None,  1.95
A53,  B53,  257.13917,  78.49839,  5.04582,  10.25142,  10.25142,  3295.0,  3225.4,  22.386,  22.377,  20.530,  212.0,  255.0,  255.0,  257.13960,  78.49830,  0.062,  15.2V,  1237663230678794417,  257.13908,  78.49838,  17.99,  15.88,  14.92,  14.44,  14.11,  1.00000,  1.00000,  1.00000,  1.00000,  1.00000,  None,  3.07
A54,  B54,  257.24162,  78.83753,  5.58069,  10.25142,  10.25142,  892.0,  174.3,  21.819,  21.110,  20.586,  217.0,  255.0,  255.0,  257.24210,  78.83750,  0.054,  15.7V,  1237663269869060123,  257.24147,  78.83752,  18.46,  16.35,  15.43,  14.99,  14.65,  0.59912,  0.95904,  0.99009,  0.95010,  1.00000,  None,  3.04
A55,  B55,  255.13408,  78.93606,  5.70247,  10.25142,  10.25142,  255.0,  217.6,  21.275,  21.206,  20.599,  220.0,  255.0,  255.0,  255.13460,  78.93610,  0.051,  16.39,  1237656565427929306,  255.13454,  78.93609,  19.00,  17.03,  16.11,  15.63,  15.23,  0.62885,  0.54013,  0.65013,  0.70991,  0.76654,  None,  2.90
A56,  B56,  257.33050,  78.50450,  6.07816,  7.93920,  8.23741,  89.0,  74.0,  20.818,  20.737,  20.639,  227.0,  242.0,  244.0,  257.32790,  78.50470,  0.056,  16.7R,  1237663230678794786,  257.32937,  78.50435,  19.72,  17.84,  16.91,  16.43,  16.12,  1.00000,  0.71926,  0.82165,  0.92420,  0.98037,  None,  2.82
A57,  B57,  255.85504,  78.34411,  6.15540,  10.25142,  10.25142,  828.0,  306.0,  21.786,  21.354,  20.647,  228.0,  255.0,  255.0,  255.85330,  78.34420,  0.063,  16.4R,  1237656565428191416,  255.85505,  78.34409,  18.42,  17.24,  16.70,  16.31,  16.13,  0.00000,  0.00000,  0.00000,  0.01650,  0.10381,  None,  1.72
A58,  B58,  257.43850,  78.51861,  6.53913,  10.25142,  10.25142,  130.0,  121.2,  20.982,  20.952,  20.687,  230.0,  255.0,  255.0,  257.43000,  78.51780,  0.062,  16.63,  1237663230678859802,  257.43845,  78.51854,  19.18,  17.23,  16.35,  15.90,  15.55,  0.20341,  0.79543,  0.86894,  0.94999,  1.00000,  None,  2.83
A59,  B59,  255.78988,  78.68897,  0.07511,  3.17813,  5.32981,  43.77,  26.0,  20.509,  20.283,  20.181,  10.0,  178.0,  216.0,  255.78880,  78.68890,  0.067,  16.8V,  1237656565428060410,  255.78840,  78.68884,  19.18,  17.28,  16.37,  15.93,  15.57,  0.94308,  1.00000,  1.00000,  1.00000,  1.00000,  None,  2.81
A60,  B60,  256.16165,  78.88676,  2.98008,  10.25142,  10.25142,  1032.64,  378.2,  21.882,  21.446,  20.334,  174.0,  255.0,  255.0,  256.15630,  78.88890,  0.060,  18.1V,  1237663231215665231,  256.15567,  78.88889,  19.19,  17.89,  17.55,  17.26,  17.20,  0.42564,  0.49418,  0.46325,  0.53751,  0.66977,  None,  1.64
A61,  B61,  256.97933,  78.74714,  2.86914,  6.10601,  8.05485,  79.85,  53.7,  20.770,  20.598,  20.326,  171.0,  227.0,  242.0,  256.97960,  78.74690,  0.057,  17.0V,  1237663269868994834,  256.97932,  78.74708,  19.15,  17.36,  16.45,  16.05,  15.71,  0.28821,  0.71015,  0.76845,  0.59415,  0.71199,  near the relic,  2.70
A62,  B62,  257.41612,  78.55214,  5.85017,  6.19928,  10.25142,  356.42,  54.8,  21.420,  20.607,  20.615,  222.0,  228.0,  255.0,  257.41460,  78.55220,  0.054,  15.73,  1237663230678860038,  257.41613,  78.55202,  17.95,  16.22,  15.37,  14.92,  14.60,  0.00000,  0.56911,  0.76125,  0.90896,  1.00000,  None,  2.58
A63,  B63,  256.70400,  78.59272,  1.69217,  2.39610,  4.44092,  37.25,  27.3,  20.439,  20.304,  20.246,  132.0,  155.0,  200.0,  256.70420,  78.59280,  0.058,  16.0V,  1237663230678794278,  256.70402,  78.59264,  24.63,  17.36,  16.24,  15.69,  15.56,  1.00000,  0.70375,  1.00000,  1.00000,  0.48357,  None,  8.39
A64,  B64,  256.75800,  78.69140,  1.59076,  10.25142,  10.25142,  251.9,  160.2,  21.269,  21.073,  20.240,  128.0,  255.0,  255.0,  256.75210,  78.68970,  0.057,  17.6V,  1237663269868994760,  256.75196,  78.68978,  20.61,  18.47,  17.52,  17.13,  16.82,  0.00000,  0.75561,  0.85647,  0.78591,  0.81971,  optical a little off,  3.09
A65,  B65,  254.50925,  78.56339,  5.28297,  10.25142,  10.25142,  214.62,  461.7,  21.200,  21.533,  20.555,  215.0,  255.0,  255.0,  254.50500,  78.56280,  0.064,  15.40,  1237655749380800577,  254.50924,  78.56333,  18.53,  16.25,  15.18,  14.87,  14.26,  1.00000,  1.00000,  1.00000,  1.00000,  1.00000,  None,  3.35
A66,  B66,  255.33471,  78.75531,  1.27022,  1.66514,  5.58385,  47.38,  24.6,  20.544,  20.259,  20.223,  110.0,  131.0,  218.0,  255.33420,  78.75560,  0.057,  18.0R,  1237656565427995115,  255.33468,  78.75523,  20.53,  18.94,  18.21,  17.78,  17.54,  1.00000,  0.10058,  0.13887,  0.14768,  0.01313,  None,  2.32
A67,  B67,  256.14958,  78.66806,  0.10860,  9.37346,  10.25142,  124.02,  114.3,  20.962,  20.926,  20.179,  15.0,  251.0,  255.0,  256.14960,  78.66810,  0.066,  17.8V,  1237663269868929419,  256.14933,  78.66815,  19.68,  18.05,  17.18,  16.75,  16.48,  0.00000,  0.78163,  0.73290,  0.84788,  0.91977,  opt & radi not in the same position,  2.50
A68,  B68,  255.90917,  78.78278,  0.79784,  5.33866,  10.25142,  132.69,  43.9,  20.991,  20.511,  20.200,  86.0,  216.0,  255.0,  255.90920,  78.78280,  0.066,  18.0V,  1237663269868929423,  255.90886,  78.78282,  20.34,  18.45,  17.53,  17.09,  16.78,  0.00000,  0.97200,  0.92376,  0.93403,  0.87695,  None,  2.81
A69,  B69,  254.71417,  78.51667,  4.75080,  8.89723,  10.25142,  330.38,  105.0,  21.387,  20.889,  20.500,  206.0,  248.0,  255.0,  254.71420,  78.51670,  0.062,  16.11,  1237655749380800829,  254.71751,  78.51720,  19.00,  16.98,  15.99,  15.51,  15.13,  0.81888,  0.82572,  0.85147,  0.85408,  0.90042,  None,  3.02
A70,  B70,  256.78229,  78.64281,  1.68768,  1.52095,  1.21112,  24.06,  21.0,  20.250,  20.190,  20.246,  131.0,  123.0,  107.0,  256.78250,  78.64280,  0.063,  16.0V,  1237663230678794711,  256.78225,  78.64274,  18.55,  16.60,  15.64,  15.18,  14.85,  1.00000,  0.96563,  0.99245,  0.99795,  0.97527,  None,  2.91
A71,  B71,  255.89875,  78.66500,  0.00260,  0.62345,  0.07394,  19.14,  18.5,  20.150,  20.135,  20.205,  1.0,  74.0,  10.0,  255.89880,  78.66500,  0.052,  16.7V,  1237656565428060463,  255.89853,  78.66493,  19.38,  17.27,  16.34,  15.88,  15.52,  1.00000,  0.94400,  0.95543,  0.97977,  0.99399,  None,  3.04
A72,  B72,  255.95204,  78.64570,  0.02681,  0.61372,  2.04796,  25.0,  19.7,  20.266,  20.163,  20.190,  6.0,  73.0,  146.0,  255.95200,  78.64570,  0.057,  ...,  1237656565428061022,  255.95264,  78.64572,  25.94,  21.65,  19.97,  19.41,  19.19,  0.00000,  1.00000,  1.00000,  1.00000,  0.98179,  None,  5.97
A73,  B73,  256.28583,  78.68500,  0.30585,  10.25142,  10.25142,  1128.81,  1107.0,  21.921,  21.912,  20.179,  47.0,  255.0,  255.0,  256.28580,  78.68500,  0.059,  ...,  1237663269868929212,  256.28614,  78.68497,  19.41,  17.45,  16.66,  16.36,  16.32,  1.00000,  1.00000,  0.00000,  1.00000,  0.00000,  opt & radi not in the same position,  2.74
-1000000,  B74,  -1000000,  -1000000,  -1000000,  -1000000,  -1000000,  -1000000,  -1000000,  -1000000,  -1000000,  -1000000,  -1000000,  -1000000,  -1000000,  255.90540,  78.67500,  0.057,  18.0V,  1237656565428060458,  255.90521,  78.67509,  20.54,  18.52,  17.61,  17.19,  16.84,  1.00000,  0.98147,  0.92431,  0.94028,  1.00000,  opt & radi not in the same position,  2.92
-1000000,  B75,  -1000000,  -1000000,  -1000000,  -1000000,  -1000000,  -1000000,  -1000000,  -1000000,  -1000000,  -1000000,  -1000000,  -1000000,  -1000000,  255.92460,  78.65470,  0.049,  18.5R,  1237656565428060534,  255.92558,  78.65441,  21.55,  19.67,  18.80,  18.41,  18.12,  1.00000,  1.00000,  0.94434,  1.00000,  1.00000,  In the relic optical a little off,  2.75
-1000000,  B76,  -1000000,  -1000000,  -1000000,  -1000000,  -1000000,  -1000000,  -1000000,  -1000000,  -1000000,  -1000000,  -1000000,  -1000000,  -1000000,  256.00420,  78.65830,  0.059,  ...,  1237656565428060510,  255.99080,  78.65956,  24.17,  19.73,  18.87,  18.42,  18.18,  0.00000,  0.21208,  0.57941,  0.49548,  0.25744,  None,  5.30
-1000000,  B77,  -1000000,  -1000000,  -1000000,  -1000000,  -1000000,  -1000000,  -1000000,  -1000000,  -1000000,  -1000000,  -1000000,  -1000000,  -1000000,  255.80330,  78.67220,  0.055,  17.9V,  1237656565428060201,  255.80259,  78.67228,  20.90,  18.88,  17.97,  17.55,  17.23,  0.93514,  1.00000,  1.00000,  1.00000,  1.00000,  None,  2.93
-1000000,  B78,  -1000000,  -1000000,  -1000000,  -1000000,  -1000000,  -1000000,  -1000000,  -1000000,  -1000000,  -1000000,  -1000000,  -1000000,  -1000000,  255.90750,  78.64080,  0.059,  16.9V,  1237656565428060282,  255.90713,  78.64080,  19.42,  17.30,  16.38,  15.94,  15.61,  0.88937,  0.87364,  0.92324,  0.90354,  0.92338,  None,  3.05
-1000000,  B79,  -1000000,  -1000000,  -1000000,  -1000000,  -1000000,  -1000000,  -1000000,  -1000000,  -1000000,  -1000000,  -1000000,  -1000000,  -1000000,  255.98630,  78.62670,  0.050,  16.4V,  1237656565428060279,  255.98568,  78.62654,  18.97,  16.89,  15.99,  15.57,  15.28,  0.77104,  0.96236,  0.96738,  0.98053,  0.98834,  None,  2.98
-1000000,  B80,  -1000000,  -1000000,  -1000000,  -1000000,  -1000000,  -1000000,  -1000000,  -1000000,  -1000000,  -1000000,  -1000000,  -1000000,  -1000000,  256.12540,  78.64670,  0.056,  17.3V,  1237663269868929096,  256.12494,  78.64648,  20.06,  18.21,  17.37,  16.88,  16.57,  0.42691,  1.00000,  0.99634,  1.00000,  0.87185,  None,  2.69
-1000000,  B81,  -1000000,  -1000000,  -1000000,  -1000000,  -1000000,  -1000000,  -1000000,  -1000000,  -1000000,  -1000000,  -1000000,  -1000000,  -1000000,  255.94380,  78.62330,  0.060,  17.9V,  1237656565428060302,  255.93921,  78.62312,  23.71,  21.12,  20.27,  19.96,  19.91,  0.00000,  0.00000,  0.00000,  0.00000,  0.00000,  None,  3.45
-1000000,  B82,  -1000000,  -1000000,  -1000000,  -1000000,  -1000000,  -1000000,  -1000000,  -1000000,  -1000000,  -1000000,  -1000000,  -1000000,  -1000000,  256.05630,  78.62860,  0.056,  14.6V,  1237656565428060274,  256.05599,  78.62874,  17.35,  15.10,  14.14,  13.65,  13.34,  0.63782,  0.56502,  0.57013,  0.64863,  0.64339,  None,  3.21
-1000000,  B83,  -1000000,  -1000000,  -1000000,  -1000000,  -1000000,  -1000000,  -1000000,  -1000000,  -1000000,  -1000000,  -1000000,  -1000000,  -1000000,  255.74500,  78.63780,  0.053,  17.2R,  1237656565428060540,  255.74460,  78.63776,  20.49,  18.44,  17.52,  17.11,  16.78,  0.51402,  0.99061,  0.94319,  0.93773,  0.91644,  None,  2.98
-1000000,  B84,  -1000000,  -1000000,  -1000000,  -1000000,  -1000000,  -1000000,  -1000000,  -1000000,  -1000000,  -1000000,  -1000000,  -1000000,  -1000000,  255.96130,  78.61720,  0.068,  16.9V,  1237656565428060281,  255.96074,  78.61726,  20.63,  18.71,  17.74,  17.41,  16.94,  0.00000,  0.00000,  0.00000,  0.00000,  0.00000,  None,  2.89
-1000000,  B85,  -1000000,  -1000000,  -1000000,  -1000000,  -1000000,  -1000000,  -1000000,  -1000000,  -1000000,  -1000000,  -1000000,  -1000000,  -1000000,  255.88670,  78.61720,  0.056,  18.2V,  1237656565428060290,  255.88644,  78.61723,  21.22,  19.34,  18.46,  18.07,  17.68,  1.00000,  0.00000,  0.00000,  0.00000,  0.00000,  None,  2.76
-1000000,  B86,  -1000000,  -1000000,  -1000000,  -1000000,  -1000000,  -1000000,  -1000000,  -1000000,  -1000000,  -1000000,  -1000000,  -1000000,  -1000000,  255.93130,  78.71750,  0.058,  ...,  1237656565427995784,  255.94765,  78.71252,  27.03,  22.87,  21.15,  20.54,  20.31,  1.00000,  1.00000,  0.93933,  0.00000,  0.96823,  None,  5.89
-1000000,  B87,  -1000000,  -1000000,  -1000000,  -1000000,  -1000000,  -1000000,  -1000000,  -1000000,  -1000000,  -1000000,  -1000000,  -1000000,  -1000000,  255.74210,  78.70140,  0.053,  17.4R,  1237656565427995072,  255.74194,  78.70144,  20.47,  18.59,  17.70,  17.28,  17.09,  1.00000,  0.78517,  0.75067,  0.81200,  0.71249,  None,  2.77
-1000000,  B88,  -1000000,  -1000000,  -1000000,  -1000000,  -1000000,  -1000000,  -1000000,  -1000000,  -1000000,  -1000000,  -1000000,  -1000000,  -1000000,  255.90960,  78.61500,  0.053,  17.4V,  1237656565428060286,  255.90917,  78.61498,  20.38,  18.31,  17.40,  16.99,  16.66,  0.36593,  0.97357,  0.93071,  0.88964,  0.83042,  None,  2.98
-1000000,  B89,  -1000000,  -1000000,  -1000000,  -1000000,  -1000000,  -1000000,  -1000000,  -1000000,  -1000000,  -1000000,  -1000000,  -1000000,  -1000000,  256.09170,  78.70830,  0.050,  16.9V,  1237663269868929432,  256.09116,  78.70835,  19.61,  17.63,  16.72,  16.30,  16.01,  1.00000,  1.00000,  1.00000,  1.00000,  1.00000,  None,  2.89
-1000000,  B90,  -1000000,  -1000000,  -1000000,  -1000000,  -1000000,  -1000000,  -1000000,  -1000000,  -1000000,  -1000000,  -1000000,  -1000000,  -1000000,  256.19750,  78.67530,  0.055,  17.7V,  1237663269868929451,  256.19727,  78.67530,  20.17,  18.33,  17.44,  17.02,  16.75,  0.97775,  0.66452,  0.57673,  0.67979,  0.54869,  None,  2.74
-1000000,  B91,  -1000000,  -1000000,  -1000000,  -1000000,  -1000000,  -1000000,  -1000000,  -1000000,  -1000000,  -1000000,  -1000000,  -1000000,  -1000000,  256.16880,  78.69190,  0.062,  18.3V,  1237663269868929454,  256.16852,  78.69189,  20.82,  18.97,  18.09,  17.69,  17.46,  0.97802,  0.71077,  0.57178,  0.58825,  0.48841,  None,  2.72
-1000000,  B92,  -1000000,  -1000000,  -1000000,  -1000000,  -1000000,  -1000000,  -1000000,  -1000000,  -1000000,  -1000000,  -1000000,  -1000000,  -1000000,  255.86960,  78.61420,  0.060,  16.7V,  1237656565428060280,  255.86920,  78.61406,  19.69,  17.49,  16.57,  16.13,  15.77,  0.83545,  0.96768,  0.96773,  0.94147,  0.93222,  None,  3.12
-1000000,  B93,  -1000000,  -1000000,  -1000000,  -1000000,  -1000000,  -1000000,  -1000000,  -1000000,  -1000000,  -1000000,  -1000000,  -1000000,  -1000000,  255.65580,  78.67640,  0.059,  17.3V,  1237656565428060412,  255.65541,  78.67643,  19.97,  17.93,  16.98,  16.55,  16.18,  0.55621,  1.00000,  1.00000,  1.00000,  1.00000,  None,  2.99
-1000000,  B94,  -1000000,  -1000000,  -1000000,  -1000000,  -1000000,  -1000000,  -1000000,  -1000000,  -1000000,  -1000000,  -1000000,  -1000000,  -1000000,  256.13710,  78.70560,  0.051,  17.2V,  1237663269868929445,  256.13685,  78.70553,  19.38,  17.69,  16.83,  16.42,  16.15,  0.63057,  0.97455,  0.96852,  0.98559,  0.90773,  None,  2.56
-1000000,  B95,  -1000000,  -1000000,  -1000000,  -1000000,  -1000000,  -1000000,  -1000000,  -1000000,  -1000000,  -1000000,  -1000000,  -1000000,  -1000000,  256.21630,  78.67420,  0.059,  17.3V,  1237663269868929450,  256.21578,  78.67413,  19.72,  17.91,  16.95,  16.50,  16.20,  1.00000,  0.94158,  0.93682,  0.96915,  0.82000,  None,  2.77
-1000000,  B96,  -1000000,  -1000000,  -1000000,  -1000000,  -1000000,  -1000000,  -1000000,  -1000000,  -1000000,  -1000000,  -1000000,  -1000000,  -1000000,  255.64460,  78.66030,  0.059,  16.9V,  1237656565428060446,  255.64393,  78.66023,  19.37,  17.42,  16.54,  16.13,  15.90,  0.95754,  0.87434,  0.88453,  0.89647,  0.71840,  None,  2.83
-1000000,  B97,  -1000000,  -1000000,  -1000000,  -1000000,  -1000000,  -1000000,  -1000000,  -1000000,  -1000000,  -1000000,  -1000000,  -1000000,  -1000000,  256.16960,  78.62810,  0.066,  17.2V,  1237663230678728786,  256.16917,  78.62811,  19.64,  17.78,  16.86,  16.42,  16.17,  1.00000,  0.82659,  0.92730,  0.95203,  0.95564,  None,  2.79
-1000000,  B98,  -1000000,  -1000000,  -1000000,  -1000000,  -1000000,  -1000000,  -1000000,  -1000000,  -1000000,  -1000000,  -1000000,  -1000000,  -1000000,  255.75630,  78.61440,  0.055,  16.4V,  1237656565428060581,  255.75586,  78.61432,  18.79,  16.80,  15.85,  15.41,  15.06,  0.55427,  0.67925,  0.69658,  0.67626,  0.71272,  None,  2.94
-1000000,  B99,  -1000000,  -1000000,  -1000000,  -1000000,  -1000000,  -1000000,  -1000000,  -1000000,  -1000000,  -1000000,  -1000000,  -1000000,  -1000000,  256.26460,  78.66720,  0.056,  16.5V,  1237663269868929463,  256.26403,  78.66736,  18.96,  16.98,  16.05,  15.60,  15.26,  1.00000,  1.00000,  0.99679,  1.00000,  0.96019,  None,  2.91
-1000000,  B100,  -1000000,  -1000000,  -1000000,  -1000000,  -1000000,  -1000000,  -1000000,  -1000000,  -1000000,  -1000000,  -1000000,  -1000000,  -1000000,  256.18330,  78.62280,  0.050,  16.2V,  1237663230678728782,  256.18258,  78.62277,  18.87,  16.80,  15.85,  15.39,  15.09,  1.00000,  0.93361,  0.99662,  1.00000,  1.00000,  None,  3.02
-1000000,  B101,  -1000000,  -1000000,  -1000000,  -1000000,  -1000000,  -1000000,  -1000000,  -1000000,  -1000000,  -1000000,  -1000000,  -1000000,  -1000000,  256.20580,  78.62830,  0.057,  17.4R,  1237663230678728789,  256.20565,  78.62846,  20.66,  18.36,  17.43,  17.11,  17.37,  0.34253,  0.83031,  0.81904,  1.00000,  1.00000,  None,  3.23
-1000000,  B102,  -1000000,  -1000000,  -1000000,  -1000000,  -1000000,  -1000000,  -1000000,  -1000000,  -1000000,  -1000000,  -1000000,  -1000000,  -1000000,  255.83960,  78.73170,  0.050,  16.4R,  1237656565427995041,  255.84094,  78.73152,  19.66,  17.81,  16.93,  16.51,  16.15,  1.00000,  1.00000,  1.00000,  1.00000,  1.00000,  None,  2.72
-1000000,  B103,  -1000000,  -1000000,  -1000000,  -1000000,  -1000000,  -1000000,  -1000000,  -1000000,  -1000000,  -1000000,  -1000000,  -1000000,  -1000000,  256.24080,  78.63690,  0.065,  17.5V,  1237663230678728787,  256.24083,  78.63687,  20.50,  18.59,  17.66,  17.23,  16.96,  0.99532,  0.64688,  0.62827,  0.70983,  0.78755,  None,  2.83
-1000000,  B104,  -1000000,  -1000000,  -1000000,  -1000000,  -1000000,  -1000000,  -1000000,  -1000000,  -1000000,  -1000000,  -1000000,  -1000000,  -1000000,  256.08880,  78.60580,  0.058,  18.2V,  1237656565428060294,  256.08841,  78.60596,  20.44,  18.42,  17.54,  17.13,  16.87,  0.00000,  0.44907,  0.48956,  0.46054,  0.48380,  None,  2.91
-1000000,  B105,  -1000000,  -1000000,  -1000000,  -1000000,  -1000000,  -1000000,  -1000000,  -1000000,  -1000000,  -1000000,  -1000000,  -1000000,  -1000000,  256.24330,  78.70080,  0.058,  17.0V,  1237663269868929484,  256.24316,  78.70092,  19.49,  17.55,  16.65,  16.26,  15.99,  1.00000,  1.00000,  1.00000,  1.00000,  0.95656,  None,  2.83
-1000000,  B106,  -1000000,  -1000000,  -1000000,  -1000000,  -1000000,  -1000000,  -1000000,  -1000000,  -1000000,  -1000000,  -1000000,  -1000000,  -1000000,  255.57920,  78.64830,  0.053,  ...,  1237656565428061580,  255.60177,  78.64471,  24.06,  22.74,  22.16,  21.23,  22.13,  1.00000,  0.00000,  0.00000,  0.89594,  0.00000,  None,  1.90
-1000000,  B107,  -1000000,  -1000000,  -1000000,  -1000000,  -1000000,  -1000000,  -1000000,  -1000000,  -1000000,  -1000000,  -1000000,  -1000000,  -1000000,  255.98250,  78.73890,  0.052,  17.9V,  1237663269868929407,  255.98237,  78.73889,  20.59,  18.39,  17.52,  17.11,  16.92,  0.84937,  0.75920,  0.69529,  0.83578,  0.76570,  None,  3.07
-1000000,  B108,  -1000000,  -1000000,  -1000000,  -1000000,  -1000000,  -1000000,  -1000000,  -1000000,  -1000000,  -1000000,  -1000000,  -1000000,  -1000000,  255.57170,  78.63830,  0.052,  16.7V,  1237656565428060503,  255.57116,  78.63835,  19.16,  17.30,  16.36,  15.92,  15.57,  1.00000,  0.98360,  0.99121,  0.99703,  1.00000,  None,  2.79
-1000000,  B109,  -1000000,  -1000000,  -1000000,  -1000000,  -1000000,  -1000000,  -1000000,  -1000000,  -1000000,  -1000000,  -1000000,  -1000000,  -1000000,  255.85710,  78.59170,  0.053,  18.3V,  1237656565428060630,  255.85665,  78.59169,  20.50,  18.87,  17.98,  17.56,  17.23,  0.29708,  0.48692,  0.48676,  0.50799,  0.46293,  None,  2.52
-1000000,  B110,  -1000000,  -1000000,  -1000000,  -1000000,  -1000000,  -1000000,  -1000000,  -1000000,  -1000000,  -1000000,  -1000000,  -1000000,  -1000000,  255.63330,  78.71810,  0.051,  16.8V,  1237656565427995037,  255.63267,  78.71815,  19.64,  17.54,  16.61,  16.17,  15.78,  1.00000,  0.92808,  0.93090,  0.95674,  0.96470,  None,  3.03
-1000000,  B111,  -1000000,  -1000000,  -1000000,  -1000000,  -1000000,  -1000000,  -1000000,  -1000000,  -1000000,  -1000000,  -1000000,  -1000000,  -1000000,  256.32670,  78.64610,  0.059,  16.6V,  1237663230678729233,  256.32658,  78.64602,  19.43,  17.38,  16.40,  15.94,  15.61,  0.48935,  0.71328,  0.77949,  0.85856,  0.87292,  None,  3.02
-1000000,  B112,  -1000000,  -1000000,  -1000000,  -1000000,  -1000000,  -1000000,  -1000000,  -1000000,  -1000000,  -1000000,  -1000000,  -1000000,  -1000000,  256.35000,  78.67310,  0.060,  17.7V,  1237663269868929502,  256.34995,  78.67304,  20.74,  18.29,  17.39,  16.96,  16.68,  0.65548,  0.81907,  0.85830,  0.94630,  0.88258,  None,  3.36
-1000000,  B113,  -1000000,  -1000000,  -1000000,  -1000000,  -1000000,  -1000000,  -1000000,  -1000000,  -1000000,  -1000000,  -1000000,  -1000000,  -1000000,  255.70040,  78.74080,  0.067,  14.9V,  1237656565427994975,  255.70009,  78.74091,  17.40,  15.43,  14.48,  14.04,  13.74,  1.00000,  1.00000,  1.00000,  1.00000,  1.00000,  None,  2.92
-1000000,  B114,  -1000000,  -1000000,  -1000000,  -1000000,  -1000000,  -1000000,  -1000000,  -1000000,  -1000000,  -1000000,  -1000000,  -1000000,  -1000000,  256.36290,  78.64640,  0.065,  16.6V,  1237663230678794544,  256.36272,  78.64647,  19.25,  17.14,  16.16,  15.68,  15.36,  0.50310,  0.79950,  0.93459,  0.98795,  0.88179,  None,  3.09
-1000000,  B115,  -1000000,  -1000000,  -1000000,  -1000000,  -1000000,  -1000000,  -1000000,  -1000000,  -1000000,  -1000000,  -1000000,  -1000000,  -1000000,  256.37750,  78.67190,  0.057,  16.4V,  1237663269868929506,  256.37725,  78.67194,  18.76,  16.87,  15.96,  15.53,  15.22,  1.00000,  1.00000,  0.94965,  1.00000,  0.97457,  None,  2.81
-1000000,  B116,  -1000000,  -1000000,  -1000000,  -1000000,  -1000000,  -1000000,  -1000000,  -1000000,  -1000000,  -1000000,  -1000000,  -1000000,  -1000000,  255.57130,  78.72140,  0.060,  16.6V,  1237656565427995019,  255.57081,  78.72135,  19.10,  17.21,  16.30,  15.87,  15.52,  1.00000,  1.00000,  1.00000,  1.00000,  1.00000,  None,  2.80
-1000000,  B117,  -1000000,  -1000000,  -1000000,  -1000000,  -1000000,  -1000000,  -1000000,  -1000000,  -1000000,  -1000000,  -1000000,  -1000000,  -1000000,  256.05080,  78.58000,  0.066,  17.5V,  1237656565428060668,  256.05042,  78.58004,  19.95,  18.11,  17.15,  16.71,  16.34,  0.90408,  0.93098,  0.92693,  0.93913,  1.00000,  None,  2.80
-1000000,  B118,  -1000000,  -1000000,  -1000000,  -1000000,  -1000000,  -1000000,  -1000000,  -1000000,  -1000000,  -1000000,  -1000000,  -1000000,  -1000000,  255.94670,  78.57640,  0.058,  17.3V,  1237656565428060666,  255.94628,  78.57644,  19.62,  17.79,  16.92,  16.51,  16.20,  0.63286,  0.90646,  0.91558,  0.94113,  0.94734,  None,  2.70
-1000000,  B119,  -1000000,  -1000000,  -1000000,  -1000000,  -1000000,  -1000000,  -1000000,  -1000000,  -1000000,  -1000000,  -1000000,  -1000000,  -1000000,  256.38630,  78.65060,  0.051,  16.9V,  1237663230678794545,  256.38592,  78.65044,  19.56,  17.68,  16.78,  16.34,  16.03,  0.88978,  0.94764,  0.97506,  1.00000,  0.93059,  None,  2.78
-1000000,  B120,  -1000000,  -1000000,  -1000000,  -1000000,  -1000000,  -1000000,  -1000000,  -1000000,  -1000000,  -1000000,  -1000000,  -1000000,  -1000000,  255.73000,  78.58440,  0.055,  17.0V,  1237656565428060623,  255.72952,  78.58438,  18.99,  17.22,  16.35,  15.97,  15.67,  0.16659,  0.44388,  0.46765,  0.43209,  0.46817,  None,  2.64
-1000000,  B121,  -1000000,  -1000000,  -1000000,  -1000000,  -1000000,  -1000000,  -1000000,  -1000000,  -1000000,  -1000000,  -1000000,  -1000000,  -1000000,  255.58420,  78.60360,  0.052,  16.8V,  1237656565428060248,  255.58344,  78.60343,  19.49,  17.37,  16.45,  16.01,  15.66,  0.84833,  1.00000,  1.00000,  0.99640,  0.99110,  None,  3.04
-1000000,  B122,  -1000000,  -1000000,  -1000000,  -1000000,  -1000000,  -1000000,  -1000000,  -1000000,  -1000000,  -1000000,  -1000000,  -1000000,  -1000000,  256.38960,  78.69470,  0.059,  18.3V,  1237663269868929597,  256.38933,  78.69484,  21.27,  18.76,  17.88,  17.44,  17.23,  1.00000,  1.00000,  0.94197,  1.00000,  0.85962,  None,  3.39
-1000000,  B123,  -1000000,  -1000000,  -1000000,  -1000000,  -1000000,  -1000000,  -1000000,  -1000000,  -1000000,  -1000000,  -1000000,  -1000000,  -1000000,  256.07920,  78.75690,  0.066,  ...,  1237663269868929460,  256.07931,  78.75695,  22.17,  19.23,  17.72,  16.85,  16.44,  1.00000,  1.00000,  0.00000,  1.00000,  1.00000,  None,  4.45
-1000000,  B124,  -1000000,  -1000000,  -1000000,  -1000000,  -1000000,  -1000000,  -1000000,  -1000000,  -1000000,  -1000000,  -1000000,  -1000000,  -1000000,  255.49210,  78.71060,  0.049,  16.6R,  1237656565427994782,  255.49307,  78.71049,  18.70,  17.51,  17.06,  16.90,  16.85,  0.00000,  0.00000,  1.00000,  1.00000,  1.00000,  None,  1.64
-1000000,  B125,  -1000000,  -1000000,  -1000000,  -1000000,  -1000000,  -1000000,  -1000000,  -1000000,  -1000000,  -1000000,  -1000000,  -1000000,  -1000000,  256.11790,  78.75780,  0.058,  18.6V,  1237663269868929588,  256.11763,  78.75774,  21.16,  18.92,  18.07,  17.70,  17.44,  0.00000,  0.86712,  0.90544,  0.77949,  0.49755,  None,  3.10
-1000000,  B126,  -1000000,  -1000000,  -1000000,  -1000000,  -1000000,  -1000000,  -1000000,  -1000000,  -1000000,  -1000000,  -1000000,  -1000000,  -1000000,  255.59500,  78.59390,  0.056,  16.6V,  1237656565428060250,  255.59456,  78.59380,  19.42,  17.21,  16.27,  15.82,  15.46,  0.93972,  0.94141,  0.93350,  0.94920,  0.99646,  None,  3.14
-1000000,  B127,  -1000000,  -1000000,  -1000000,  -1000000,  -1000000,  -1000000,  -1000000,  -1000000,  -1000000,  -1000000,  -1000000,  -1000000,  -1000000,  256.44830,  78.66580,  0.062,  ...,  1237663269868929524,  256.44887,  78.66580,  21.00,  19.04,  18.14,  17.74,  17.52,  1.00000,  0.94146,  1.00000,  1.00000,  1.00000,  None,  2.86
-1000000,  B128,  -1000000,  -1000000,  -1000000,  -1000000,  -1000000,  -1000000,  -1000000,  -1000000,  -1000000,  -1000000,  -1000000,  -1000000,  -1000000,  255.61290,  78.74690,  0.056,  17.1V,  1237656565427994967,  255.61233,  78.74702,  19.72,  17.73,  16.79,  16.36,  16.01,  1.00000,  1.00000,  1.00000,  1.00000,  1.00000,  None,  2.93
-1000000,  B129,  -1000000,  -1000000,  -1000000,  -1000000,  -1000000,  -1000000,  -1000000,  -1000000,  -1000000,  -1000000,  -1000000,  -1000000,  -1000000,  255.80540,  78.76560,  0.052,  16.8V,  1237656565427994961,  255.80550,  78.76554,  19.41,  17.35,  16.40,  15.95,  15.57,  0.91193,  1.00000,  1.00000,  1.00000,  1.00000,  None,  3.01
-1000000,  B130,  -1000000,  -1000000,  -1000000,  -1000000,  -1000000,  -1000000,  -1000000,  -1000000,  -1000000,  -1000000,  -1000000,  -1000000,  -1000000,  256.24710,  78.58440,  0.057,  16.8V,  1237663230678728933,  256.24682,  78.58444,  19.36,  17.39,  16.45,  15.94,  15.69,  0.97184,  0.65868,  0.62389,  0.79232,  0.71794,  None,  2.91
-1000000,  B131,  -1000000,  -1000000,  -1000000,  -1000000,  -1000000,  -1000000,  -1000000,  -1000000,  -1000000,  -1000000,  -1000000,  -1000000,  -1000000,  256.19630,  78.57610,  0.063,  16.3R,  1237656565428060689,  256.19757,  78.57581,  19.38,  17.50,  16.56,  16.11,  15.73,  0.25213,  0.88302,  0.88069,  0.90706,  1.00000,  None,  2.82
-1000000,  B132,  -1000000,  -1000000,  -1000000,  -1000000,  -1000000,  -1000000,  -1000000,  -1000000,  -1000000,  -1000000,  -1000000,  -1000000,  -1000000,  255.59000,  78.75060,  0.059,  17.6V,  1237656565427994958,  255.58984,  78.75050,  19.96,  18.06,  17.15,  16.72,  16.38,  0.77289,  1.00000,  1.00000,  1.00000,  1.00000,  None,  2.80
-1000000,  B133,  -1000000,  -1000000,  -1000000,  -1000000,  -1000000,  -1000000,  -1000000,  -1000000,  -1000000,  -1000000,  -1000000,  -1000000,  -1000000,  255.38000,  78.66970,  0.066,  19.3R,  1237656565427995567,  255.38126,  78.66952,  25.90,  21.26,  19.76,  18.94,  18.45,  1.00000,  0.00000,  0.00000,  1.00000,  1.00000,  None,  6.14
-1000000,  B134,  -1000000,  -1000000,  -1000000,  -1000000,  -1000000,  -1000000,  -1000000,  -1000000,  -1000000,  -1000000,  -1000000,  -1000000,  -1000000,  255.43420,  78.61470,  0.060,  17.5V,  1237656565428060229,  255.43375,  78.61474,  20.21,  18.15,  17.28,  16.86,  16.63,  0.84234,  0.32932,  0.27375,  0.29901,  0.31346,  None,  2.93
-1000000,  B135,  -1000000,  -1000000,  -1000000,  -1000000,  -1000000,  -1000000,  -1000000,  -1000000,  -1000000,  -1000000,  -1000000,  -1000000,  -1000000,  256.01750,  78.55640,  0.058,  17.0V,  1237656565428060720,  256.01702,  78.55623,  19.53,  17.53,  16.59,  16.15,  15.80,  0.97956,  1.00000,  1.00000,  1.00000,  1.00000,  None,  2.94
-1000000,  B136,  -1000000,  -1000000,  -1000000,  -1000000,  -1000000,  -1000000,  -1000000,  -1000000,  -1000000,  -1000000,  -1000000,  -1000000,  -1000000,  256.38290,  78.59720,  0.062,  17.8V,  1237663230678729376,  256.38229,  78.59717,  19.46,  17.90,  17.10,  16.70,  16.45,  0.90396,  0.58516,  0.44909,  0.53544,  0.58226,  None,  2.36
-1000000,  B137,  -1000000,  -1000000,  -1000000,  -1000000,  -1000000,  -1000000,  -1000000,  -1000000,  -1000000,  -1000000,  -1000000,  -1000000,  -1000000,  255.65130,  78.76610,  0.063,  16.8V,  1237656565427994949,  255.65130,  78.76603,  19.25,  17.33,  16.39,  15.94,  15.58,  0.86974,  1.00000,  1.00000,  1.00000,  1.00000,  None,  2.87
-1000000,  B138,  -1000000,  -1000000,  -1000000,  -1000000,  -1000000,  -1000000,  -1000000,  -1000000,  -1000000,  -1000000,  -1000000,  -1000000,  -1000000,  256.42710,  78.60690,  0.059,  17.6V,  1237663230678794578,  256.42679,  78.60688,  19.96,  18.09,  17.15,  16.70,  16.41,  1.00000,  0.76335,  0.86933,  1.00000,  0.95258,  None,  2.80
-1000000,  B139,  -1000000,  -1000000,  -1000000,  -1000000,  -1000000,  -1000000,  -1000000,  -1000000,  -1000000,  -1000000,  -1000000,  -1000000,  -1000000,  256.23420,  78.56750,  0.062,  18.3V,  1237656565428060724,  256.23377,  78.56755,  21.19,  18.84,  17.97,  17.57,  17.27,  0.00000,  0.60129,  0.68658,  0.74485,  0.18263,  None,  3.22
-1000000,  B140,  -1000000,  -1000000,  -1000000,  -1000000,  -1000000,  -1000000,  -1000000,  -1000000,  -1000000,  -1000000,  -1000000,  -1000000,  -1000000,  255.40920,  78.72140,  0.057,  17.0R,  1237656565427994768,  255.40994,  78.72108,  20.10,  18.00,  17.07,  16.63,  16.35,  0.15728,  0.86183,  0.90215,  0.94796,  0.65725,  None,  3.02
-1000000,  B141,  -1000000,  -1000000,  -1000000,  -1000000,  -1000000,  -1000000,  -1000000,  -1000000,  -1000000,  -1000000,  -1000000,  -1000000,  -1000000,  255.80210,  78.55250,  0.055,  16.6V,  1237656565428060680,  255.80146,  78.55243,  18.87,  17.04,  16.13,  15.72,  15.36,  0.99986,  0.98991,  1.00000,  1.00000,  1.00000,  None,  2.74
-1000000,  B142,  -1000000,  -1000000,  -1000000,  -1000000,  -1000000,  -1000000,  -1000000,  -1000000,  -1000000,  -1000000,  -1000000,  -1000000,  -1000000,  255.54460,  78.75810,  0.060,  16.1V,  1237656565427994913,  255.54407,  78.75801,  18.31,  16.45,  15.66,  15.27,  14.97,  0.61847,  0.79170,  0.84611,  0.92462,  1.00000,  None,  2.65
-1000000,  B143,  -1000000,  -1000000,  -1000000,  -1000000,  -1000000,  -1000000,  -1000000,  -1000000,  -1000000,  -1000000,  -1000000,  -1000000,  -1000000,  255.66040,  78.55940,  0.051,  16.6V,  1237656565428060658,  255.65985,  78.55935,  19.11,  17.12,  16.21,  15.77,  15.42,  1.00000,  0.86891,  0.88173,  0.90787,  0.92455,  None,  2.90
-1000000,  B144,  -1000000,  -1000000,  -1000000,  -1000000,  -1000000,  -1000000,  -1000000,  -1000000,  -1000000,  -1000000,  -1000000,  -1000000,  -1000000,  255.99330,  78.54310,  0.057,  16.6R,  1237656565428125886,  255.99463,  78.54280,  19.74,  17.83,  16.89,  16.46,  16.10,  1.00000,  1.00000,  1.00000,  1.00000,  1.00000,  None,  2.84
-1000000,  B145,  -1000000,  -1000000,  -1000000,  -1000000,  -1000000,  -1000000,  -1000000,  -1000000,  -1000000,  -1000000,  -1000000,  -1000000,  -1000000,  255.52210,  78.76280,  0.059,  15.9V,  1237656565427994911,  255.52175,  78.76257,  18.22,  16.35,  15.46,  15.04,  14.71,  1.00000,  0.99255,  0.99982,  1.00000,  1.00000,  None,  2.76
-1000000,  B146,  -1000000,  -1000000,  -1000000,  -1000000,  -1000000,  -1000000,  -1000000,  -1000000,  -1000000,  -1000000,  -1000000,  -1000000,  -1000000,  255.89500,  78.79440,  0.066,  15.7V,  1237663269868929180,  255.89520,  78.79437,  17.97,  16.14,  15.20,  14.76,  14.42,  1.00000,  1.00000,  1.00000,  1.00000,  1.00000,  None,  2.77
-1000000,  B147,  -1000000,  -1000000,  -1000000,  -1000000,  -1000000,  -1000000,  -1000000,  -1000000,  -1000000,  -1000000,  -1000000,  -1000000,  -1000000,  256.07130,  78.79250,  0.064,  17.0V,  1237663269868929492,  256.07116,  78.79254,  19.50,  17.52,  16.62,  16.21,  15.91,  0.72652,  0.96555,  0.85022,  0.82952,  0.88118,  None,  2.88
-1000000,  B148,  -1000000,  -1000000,  -1000000,  -1000000,  -1000000,  -1000000,  -1000000,  -1000000,  -1000000,  -1000000,  -1000000,  -1000000,  -1000000,  256.02460,  78.53060,  0.054,  18.0V,  1237656565428125905,  256.02428,  78.53060,  20.57,  18.60,  17.68,  17.25,  16.94,  0.00000,  0.46577,  0.45428,  0.47513,  0.44256,  None,  2.88
-1000000,  B149,  -1000000,  -1000000,  -1000000,  -1000000,  -1000000,  -1000000,  -1000000,  -1000000,  -1000000,  -1000000,  -1000000,  -1000000,  -1000000,  255.29330,  78.72640,  0.054,  15.29,  1237656565427994733,  255.29434,  78.72649,  19.82,  17.46,  16.52,  16.07,  15.69,  0.81526,  0.00000,  0.00000,  0.00000,  0.00000,  None,  3.30
-1000000,  B150,  -1000000,  -1000000,  -1000000,  -1000000,  -1000000,  -1000000,  -1000000,  -1000000,  -1000000,  -1000000,  -1000000,  -1000000,  -1000000,  256.36580,  78.55780,  0.054,  ...,  1237663230678729664,  256.35593,  78.55878,  21.80,  20.34,  19.71,  19.34,  19.44,  0.00000,  0.00000,  0.39256,  0.32790,  0.09887,  None,  2.09
-1000000,  B151,  -1000000,  -1000000,  -1000000,  -1000000,  -1000000,  -1000000,  -1000000,  -1000000,  -1000000,  -1000000,  -1000000,  -1000000,  -1000000,  256.17250,  78.53580,  0.056,  16.7R,  1237656565428125739,  256.17352,  78.53565,  19.86,  17.88,  16.96,  16.52,  16.18,  1.00000,  0.81847,  0.85473,  0.90532,  0.98411,  None,  2.90
-1000000,  B152,  -1000000,  -1000000,  -1000000,  -1000000,  -1000000,  -1000000,  -1000000,  -1000000,  -1000000,  -1000000,  -1000000,  -1000000,  -1000000,  256.24130,  78.54030,  0.060,  16.75,  1237656565428125912,  256.24107,  78.54028,  19.34,  17.36,  16.41,  15.98,  15.60,  0.76831,  0.97645,  0.96111,  1.00000,  1.00000,  None,  2.93
-1000000,  B153,  -1000000,  -1000000,  -1000000,  -1000000,  -1000000,  -1000000,  -1000000,  -1000000,  -1000000,  -1000000,  -1000000,  -1000000,  -1000000,  256.63330,  78.70220,  0.063,  18.0V,  1237663269868994903,  256.63330,  78.70223,  19.90,  18.40,  17.50,  17.15,  16.86,  1.00000,  0.77410,  0.77084,  0.70427,  0.67558,  None,  2.40
-1000000,  B154,  -1000000,  -1000000,  -1000000,  -1000000,  -1000000,  -1000000,  -1000000,  -1000000,  -1000000,  -1000000,  -1000000,  -1000000,  -1000000,  255.51580,  78.54750,  0.058,  18.1V,  1237656565428060663,  255.51537,  78.54748,  20.12,  18.42,  17.52,  17.12,  16.86,  1.00000,  0.75673,  0.75947,  0.72957,  0.77325,  None,  2.61
-1000000,  B155,  -1000000,  -1000000,  -1000000,  -1000000,  -1000000,  -1000000,  -1000000,  -1000000,  -1000000,  -1000000,  -1000000,  -1000000,  -1000000,  256.31790,  78.54360,  0.060,  17.6V,  1237663230678729173,  256.31733,  78.54356,  20.04,  18.11,  17.21,  16.77,  16.44,  0.29346,  0.36278,  0.50775,  0.50502,  0.52242,  None,  2.83
-1000000,  B156,  -1000000,  -1000000,  -1000000,  -1000000,  -1000000,  -1000000,  -1000000,  -1000000,  -1000000,  -1000000,  -1000000,  -1000000,  -1000000,  256.33790,  78.78890,  0.059,  18.1V,  1237663269868994715,  256.33773,  78.78884,  20.29,  18.63,  17.72,  17.30,  16.96,  1.00000,  1.00000,  1.00000,  1.00000,  1.00000,  None,  2.58
-1000000,  B157,  -1000000,  -1000000,  -1000000,  -1000000,  -1000000,  -1000000,  -1000000,  -1000000,  -1000000,  -1000000,  -1000000,  -1000000,  -1000000,  255.64960,  78.80360,  0.056,  16.9V,  1237656565427994866,  255.64953,  78.80366,  19.40,  17.44,  16.50,  16.06,  15.70,  1.00000,  1.00000,  1.00000,  1.00000,  1.00000,  None,  2.91
-1000000,  B158,  -1000000,  -1000000,  -1000000,  -1000000,  -1000000,  -1000000,  -1000000,  -1000000,  -1000000,  -1000000,  -1000000,  -1000000,  -1000000,  255.23880,  78.60330,  0.061,  17.3V,  1237656565428060537,  255.23839,  78.60344,  19.55,  17.75,  16.90,  16.49,  16.19,  0.97714,  1.00000,  1.00000,  1.00000,  1.00000,  None,  2.65
-1000000,  B159,  -1000000,  -1000000,  -1000000,  -1000000,  -1000000,  -1000000,  -1000000,  -1000000,  -1000000,  -1000000,  -1000000,  -1000000,  -1000000,  255.16920,  78.68580,  0.054,  17.6V,  1237656565427995026,  255.16887,  78.68590,  19.75,  17.96,  17.13,  16.74,  16.47,  0.87160,  0.81250,  0.77395,  0.77767,  0.87040,  None,  2.61
-1000000,  B160,  -1000000,  -1000000,  -1000000,  -1000000,  -1000000,  -1000000,  -1000000,  -1000000,  -1000000,  -1000000,  -1000000,  -1000000,  -1000000,  255.64580,  78.52440,  0.056,  18.0V,  1237656565428125881,  255.64538,  78.52450,  20.07,  18.42,  17.74,  17.43,  17.21,  0.87378,  0.46148,  0.48549,  0.43923,  0.43211,  None,  2.33
-1000000,  B161,  -1000000,  -1000000,  -1000000,  -1000000,  -1000000,  -1000000,  -1000000,  -1000000,  -1000000,  -1000000,  -1000000,  -1000000,  -1000000,  255.21380,  78.73030,  0.053,  18.1R,  1237656565427994950,  255.21428,  78.73007,  20.99,  18.99,  18.13,  17.73,  17.41,  0.99096,  1.00000,  0.91814,  0.79535,  0.85040,  None,  2.86
-1000000,  B162,  -1000000,  -1000000,  -1000000,  -1000000,  -1000000,  -1000000,  -1000000,  -1000000,  -1000000,  -1000000,  -1000000,  -1000000,  -1000000,  256.29330,  78.52640,  0.055,  16.6V,  1237656565428125931,  256.29286,  78.52644,  18.96,  16.99,  16.07,  15.65,  15.30,  0.69147,  0.86191,  0.86846,  0.91519,  0.94675,  None,  2.89
-1000000,  B163,  -1000000,  -1000000,  -1000000,  -1000000,  -1000000,  -1000000,  -1000000,  -1000000,  -1000000,  -1000000,  -1000000,  -1000000,  -1000000,  256.56040,  78.56610,  0.058,  18.4V,  1237663230678794615,  256.56026,  78.56598,  21.06,  18.81,  17.91,  17.50,  17.14,  0.00000,  0.56503,  0.67879,  0.62030,  0.58191,  None,  3.15
-1000000,  B164,  -1000000,  -1000000,  -1000000,  -1000000,  -1000000,  -1000000,  -1000000,  -1000000,  -1000000,  -1000000,  -1000000,  -1000000,  -1000000,  256.59500,  78.57220,  0.056,  17.7V,  1237663230678794631,  256.59471,  78.57226,  20.05,  18.27,  17.41,  16.97,  16.68,  0.00000,  0.26155,  0.43615,  0.48030,  0.44759,  None,  2.64
-1000000,  B165,  -1000000,  -1000000,  -1000000,  -1000000,  -1000000,  -1000000,  -1000000,  -1000000,  -1000000,  -1000000,  -1000000,  -1000000,  -1000000,  256.67920,  78.58860,  0.060,  20.0R,  1237663230678794285,  256.68107,  78.58819,  21.43,  18.40,  18.06,  17.22,  17.21,  0.00000,  1.00000,  0.27594,  1.00000,  0.71640,  None,  3.36
-1000000,  B166,  -1000000,  -1000000,  -1000000,  -1000000,  -1000000,  -1000000,  -1000000,  -1000000,  -1000000,  -1000000,  -1000000,  -1000000,  -1000000,  255.09830,  78.70190,  0.059,  16.8V,  1237656565427994764,  255.09832,  78.70188,  18.76,  17.14,  16.34,  15.97,  15.71,  1.00000,  0.97721,  0.88631,  0.85237,  0.67926,  None,  2.42
-1000000,  B167,  -1000000,  -1000000,  -1000000,  -1000000,  -1000000,  -1000000,  -1000000,  -1000000,  -1000000,  -1000000,  -1000000,  -1000000,  -1000000,  255.74460,  78.83030,  0.059,  18.6V,  1237656565427995187,  255.74438,  78.83017,  20.43,  18.98,  18.26,  17.92,  17.71,  0.83554,  0.00000,  0.00000,  0.00000,  0.00000,  None,  2.18
-1000000,  B168,  -1000000,  -1000000,  -1000000,  -1000000,  -1000000,  -1000000,  -1000000,  -1000000,  -1000000,  -1000000,  -1000000,  -1000000,  -1000000,  256.79960,  78.64940,  0.060,  17.5V,  1237663230678794712,  256.79930,  78.64936,  20.24,  18.11,  17.16,  16.72,  16.39,  1.00000,  1.00000,  1.00000,  1.00000,  1.00000,  None,  3.07
-1000000,  B169,  -1000000,  -1000000,  -1000000,  -1000000,  -1000000,  -1000000,  -1000000,  -1000000,  -1000000,  -1000000,  -1000000,  -1000000,  -1000000,  255.30750,  78.79110,  0.062,  ...,  1237656565427994852,  255.30823,  78.79125,  20.33,  18.57,  17.79,  17.44,  17.16,  0.22648,  0.00000,  0.00956,  0.00000,  0.00314,  None,  2.54
-1000000,  B170,  -1000000,  -1000000,  -1000000,  -1000000,  -1000000,  -1000000,  -1000000,  -1000000,  -1000000,  -1000000,  -1000000,  -1000000,  -1000000,  255.37710,  78.53110,  0.059,  16.8V,  1237656565428060670,  255.37724,  78.53112,  19.10,  17.15,  16.21,  15.79,  15.47,  0.79044,  0.66611,  0.71390,  0.72327,  0.78879,  None,  2.90
-1000000,  B171,  -1000000,  -1000000,  -1000000,  -1000000,  -1000000,  -1000000,  -1000000,  -1000000,  -1000000,  -1000000,  -1000000,  -1000000,  -1000000,  256.83080,  78.66420,  0.062,  17.3V,  1237663230678794730,  256.83043,  78.66421,  19.64,  17.77,  16.86,  16.42,  16.09,  1.00000,  1.00000,  1.00000,  1.00000,  1.00000,  None,  2.79
-1000000,  B172,  -1000000,  -1000000,  -1000000,  -1000000,  -1000000,  -1000000,  -1000000,  -1000000,  -1000000,  -1000000,  -1000000,  -1000000,  -1000000,  256.77000,  78.59890,  0.053,  17.4R,  1237663230678794281,  256.76984,  78.59897,  20.48,  18.55,  17.61,  17.17,  17.00,  0.00000,  0.43998,  0.68609,  0.71580,  0.74593,  None,  2.87
-1000000,  B173,  -1000000,  -1000000,  -1000000,  -1000000,  -1000000,  -1000000,  -1000000,  -1000000,  -1000000,  -1000000,  -1000000,  -1000000,  -1000000,  256.45790,  78.51860,  0.059,  18.1V,  1237663230678729192,  256.45756,  78.51854,  20.22,  18.38,  17.49,  17.06,  16.71,  0.57424,  0.72179,  0.69240,  0.76273,  0.73813,  None,  2.74
-1000000,  B174,  -1000000,  -1000000,  -1000000,  -1000000,  -1000000,  -1000000,  -1000000,  -1000000,  -1000000,  -1000000,  -1000000,  -1000000,  -1000000,  256.39420,  78.50940,  0.064,  18.3V,  1237663230678729181,  256.39376,  78.50929,  20.59,  18.70,  17.83,  17.41,  17.12,  1.00000,  0.62211,  0.74586,  0.75196,  0.65909,  None,  2.75
-1000000,  B175,  -1000000,  -1000000,  -1000000,  -1000000,  -1000000,  -1000000,  -1000000,  -1000000,  -1000000,  -1000000,  -1000000,  -1000000,  -1000000,  256.31670,  78.50060,  0.060,  17.6V,  1237656565428125972,  256.31624,  78.50049,  19.64,  17.73,  16.82,  16.43,  16.16,  1.00000,  1.00000,  1.00000,  1.00000,  1.00000,  None,  2.82
-1000000,  B176,  -1000000,  -1000000,  -1000000,  -1000000,  -1000000,  -1000000,  -1000000,  -1000000,  -1000000,  -1000000,  -1000000,  -1000000,  -1000000,  256.31500,  78.49720,  0.061,  19.0V,  1237656565428125980,  256.31468,  78.49730,  22.79,  20.41,  19.21,  18.75,  18.38,  0.30290,  0.82699,  0.89218,  1.00000,  0.86725,  None,  3.58
-1000000,  B177,  -1000000,  -1000000,  -1000000,  -1000000,  -1000000,  -1000000,  -1000000,  -1000000,  -1000000,  -1000000,  -1000000,  -1000000,  -1000000,  256.71630,  78.56170,  0.061,  17.1V,  1237663230678794665,  256.71614,  78.56167,  19.62,  17.70,  16.75,  16.30,  15.98,  1.00000,  0.90727,  0.99081,  0.94509,  0.92318,  None,  2.87
-1000000,  B178,  -1000000,  -1000000,  -1000000,  -1000000,  -1000000,  -1000000,  -1000000,  -1000000,  -1000000,  -1000000,  -1000000,  -1000000,  -1000000,  256.86710,  78.61110,  0.059,  16.5V,  1237663230678794441,  256.86675,  78.61109,  19.04,  16.95,  15.99,  15.54,  15.21,  0.54691,  1.00000,  1.00000,  1.00000,  1.00000,  None,  3.05
-1000000,  B179,  -1000000,  -1000000,  -1000000,  -1000000,  -1000000,  -1000000,  -1000000,  -1000000,  -1000000,  -1000000,  -1000000,  -1000000,  -1000000,  256.30920,  78.48860,  0.055,  16.8R,  1237656565428125985,  256.30951,  78.48847,  20.17,  18.25,  17.37,  16.97,  16.70,  0.83052,  0.30548,  0.32206,  0.39543,  0.32615,  None,  2.80
-1000000,  B180,  -1000000,  -1000000,  -1000000,  -1000000,  -1000000,  -1000000,  -1000000,  -1000000,  -1000000,  -1000000,  -1000000,  -1000000,  -1000000,  255.06630,  78.57360,  0.061,  16.5V,  1237655749380800804,  255.06592,  78.57374,  18.86,  16.91,  16.02,  15.59,  15.26,  0.88625,  0.69347,  0.69903,  0.74804,  0.82212,  None,  2.84
-1000000,  B181,  -1000000,  -1000000,  -1000000,  -1000000,  -1000000,  -1000000,  -1000000,  -1000000,  -1000000,  -1000000,  -1000000,  -1000000,  -1000000,  255.08460,  78.56530,  0.055,  16.8V,  1237655749380800811,  255.08427,  78.56526,  19.16,  17.30,  16.53,  16.19,  15.87,  0.18127,  0.47999,  0.51287,  0.56469,  0.59472,  None,  2.62
-1000000,  B182,  -1000000,  -1000000,  -1000000,  -1000000,  -1000000,  -1000000,  -1000000,  -1000000,  -1000000,  -1000000,  -1000000,  -1000000,  -1000000,  254.95080,  78.70140,  0.055,  17.3V,  1237656565427994964,  254.95063,  78.70136,  19.45,  17.74,  16.85,  16.42,  16.08,  1.00000,  1.00000,  1.00000,  1.00000,  1.00000,  None,  2.61
-1000000,  B183,  -1000000,  -1000000,  -1000000,  -1000000,  -1000000,  -1000000,  -1000000,  -1000000,  -1000000,  -1000000,  -1000000,  -1000000,  -1000000,  255.39080,  78.83250,  0.052,  ...,  1237656565427929570,  255.39183,  78.83284,  20.20,  18.58,  17.76,  17.33,  17.04,  1.00000,  0.44678,  0.48404,  0.33901,  0.22735,  None,  2.44
-1000000,  B184,  -1000000,  -1000000,  -1000000,  -1000000,  -1000000,  -1000000,  -1000000,  -1000000,  -1000000,  -1000000,  -1000000,  -1000000,  -1000000,  255.09420,  78.78940,  0.063,  16.12,  1237656565427994841,  255.09462,  78.78941,  18.74,  16.65,  15.72,  15.29,  14.98,  1.00000,  1.00000,  1.00000,  1.00000,  1.00000,  None,  3.01
-1000000,  B185,  -1000000,  -1000000,  -1000000,  -1000000,  -1000000,  -1000000,  -1000000,  -1000000,  -1000000,  -1000000,  -1000000,  -1000000,  -1000000,  256.27790,  78.47280,  0.064,  15.9V,  1237656565428126026,  256.27773,  78.47287,  18.51,  16.56,  15.59,  15.16,  14.82,  1.00000,  1.00000,  1.00000,  1.00000,  1.00000,  None,  2.92
-1000000,  B186,  -1000000,  -1000000,  -1000000,  -1000000,  -1000000,  -1000000,  -1000000,  -1000000,  -1000000,  -1000000,  -1000000,  -1000000,  -1000000,  255.52750,  78.47250,  0.054,  17.4V,  1237656565428125936,  255.52707,  78.47254,  19.98,  17.88,  16.98,  16.56,  16.21,  1.00000,  1.00000,  1.00000,  1.00000,  1.00000,  None,  3.00
-1000000,  B187,  -1000000,  -1000000,  -1000000,  -1000000,  -1000000,  -1000000,  -1000000,  -1000000,  -1000000,  -1000000,  -1000000,  -1000000,  -1000000,  255.85920,  78.87890,  0.064,  17.1V,  1237663231215599984,  255.85867,  78.87874,  19.67,  17.60,  16.66,  16.22,  15.89,  1.00000,  0.94994,  0.95492,  0.93495,  0.97497,  None,  3.01
-1000000,  B188,  -1000000,  -1000000,  -1000000,  -1000000,  -1000000,  -1000000,  -1000000,  -1000000,  -1000000,  -1000000,  -1000000,  -1000000,  -1000000,  254.88040,  78.72360,  0.057,  17.5V,  1237656565427994897,  254.88031,  78.72352,  20.07,  17.93,  17.05,  16.63,  16.29,  1.00000,  1.00000,  1.00000,  1.00000,  1.00000,  None,  3.02
-1000000,  B189,  -1000000,  -1000000,  -1000000,  -1000000,  -1000000,  -1000000,  -1000000,  -1000000,  -1000000,  -1000000,  -1000000,  -1000000,  -1000000,  255.21130,  78.83030,  0.058,  16.31,  1237656565427929230,  255.21590,  78.83043,  18.96,  16.94,  15.99,  15.54,  15.15,  1.00000,  1.00000,  1.00000,  1.00000,  1.00000,  None,  2.97
-1000000,  B190,  -1000000,  -1000000,  -1000000,  -1000000,  -1000000,  -1000000,  -1000000,  -1000000,  -1000000,  -1000000,  -1000000,  -1000000,  -1000000,  256.72330,  78.51560,  0.060,  16.3V,  1237663230678794639,  256.72311,  78.51543,  18.68,  16.82,  15.91,  15.44,  15.09,  1.00000,  1.00000,  1.00000,  1.00000,  1.00000,  None,  2.78
-1000000,  B191,  -1000000,  -1000000,  -1000000,  -1000000,  -1000000,  -1000000,  -1000000,  -1000000,  -1000000,  -1000000,  -1000000,  -1000000,  -1000000,  257.02250,  78.62560,  0.060,  16.29,  1237663230678794767,  257.02382,  78.62638,  18.88,  16.93,  16.05,  15.62,  15.30,  0.86119,  1.00000,  1.00000,  1.00000,  1.00000,  None,  2.84
-1000000,  B192,  -1000000,  -1000000,  -1000000,  -1000000,  -1000000,  -1000000,  -1000000,  -1000000,  -1000000,  -1000000,  -1000000,  -1000000,  -1000000,  255.11710,  78.51610,  0.061,  18.2V,  1237655749380800723,  255.11671,  78.51624,  20.58,  18.93,  18.12,  17.73,  17.52,  0.04759,  0.15740,  0.44733,  0.44935,  0.48418,  None,  2.46
-1000000,  B193,  -1000000,  -1000000,  -1000000,  -1000000,  -1000000,  -1000000,  -1000000,  -1000000,  -1000000,  -1000000,  -1000000,  -1000000,  -1000000,  255.82130,  78.44640,  0.054,  17.2V,  1237656565428125999,  255.82091,  78.44637,  19.49,  17.62,  16.74,  16.34,  16.02,  1.00000,  1.00000,  1.00000,  1.00000,  1.00000,  None,  2.75
-1000000,  B194,  -1000000,  -1000000,  -1000000,  -1000000,  -1000000,  -1000000,  -1000000,  -1000000,  -1000000,  -1000000,  -1000000,  -1000000,  -1000000,  256.03460,  78.44640,  0.056,  17.9V,  1237656565428126036,  256.03424,  78.44626,  20.32,  18.51,  17.64,  17.25,  16.93,  0.00000,  0.43232,  0.47562,  0.48123,  0.52966,  None,  2.67
-1000000,  B195,  -1000000,  -1000000,  -1000000,  -1000000,  -1000000,  -1000000,  -1000000,  -1000000,  -1000000,  -1000000,  -1000000,  -1000000,  -1000000,  255.10670,  78.51080,  0.058,  16.5V,  1237655749380800722,  255.10654,  78.51095,  18.69,  16.82,  15.97,  15.56,  15.25,  0.29974,  0.57843,  0.68108,  0.69729,  0.73646,  None,  2.71
-1000000,  B196,  -1000000,  -1000000,  -1000000,  -1000000,  -1000000,  -1000000,  -1000000,  -1000000,  -1000000,  -1000000,  -1000000,  -1000000,  -1000000,  254.79880,  78.62060,  0.055,  17.8V,  1237655749380800758,  254.79855,  78.62047,  19.95,  18.16,  17.32,  16.87,  16.55,  0.00000,  0.92227,  0.85937,  0.91827,  1.00000,  None,  2.63
-1000000,  B197,  -1000000,  -1000000,  -1000000,  -1000000,  -1000000,  -1000000,  -1000000,  -1000000,  -1000000,  -1000000,  -1000000,  -1000000,  -1000000,  257.04080,  78.57110,  0.062,  17.1V,  1237663230678794739,  257.04059,  78.57116,  19.10,  17.31,  16.48,  16.11,  15.83,  0.59630,  0.60435,  0.54674,  0.55949,  0.63129,  None,  2.62
-1000000,  B198,  -1000000,  -1000000,  -1000000,  -1000000,  -1000000,  -1000000,  -1000000,  -1000000,  -1000000,  -1000000,  -1000000,  -1000000,  -1000000,  257.15000,  78.67560,  0.057,  17.8V,  1237663230678860028,  257.14968,  78.67554,  19.83,  18.32,  17.49,  17.05,  16.74,  0.56035,  0.08435,  0.10477,  0.11701,  0.21787,  None,  2.34
-1000000,  B199,  -1000000,  -1000000,  -1000000,  -1000000,  -1000000,  -1000000,  -1000000,  -1000000,  -1000000,  -1000000,  -1000000,  -1000000,  -1000000,  255.03130,  78.83110,  0.055,  ...,  1237656565427929222,  255.03075,  78.83100,  19.76,  18.02,  17.22,  16.82,  16.50,  0.07691,  0.67429,  0.53518,  0.58605,  0.50998,  None,  2.54
-1000000,  B200,  -1000000,  -1000000,  -1000000,  -1000000,  -1000000,  -1000000,  -1000000,  -1000000,  -1000000,  -1000000,  -1000000,  -1000000,  -1000000,  256.70750,  78.47780,  0.067,  17.2V,  1237663230678794356,  256.70761,  78.47776,  19.39,  17.51,  16.69,  16.31,  16.04,  0.89097,  0.85469,  0.90384,  0.96951,  1.00000,  None,  2.70
-1000000,  B201,  -1000000,  -1000000,  -1000000,  -1000000,  -1000000,  -1000000,  -1000000,  -1000000,  -1000000,  -1000000,  -1000000,  -1000000,  -1000000,  255.44330,  78.89220,  0.050,  ...,  1237656565427929383,  255.44443,  78.89244,  19.20,  17.50,  16.67,  16.28,  15.95,  0.49842,  0.32103,  0.38568,  0.43112,  0.48865,  None,  2.53
-1000000,  B202,  -1000000,  -1000000,  -1000000,  -1000000,  -1000000,  -1000000,  -1000000,  -1000000,  -1000000,  -1000000,  -1000000,  -1000000,  -1000000,  256.11670,  78.42220,  0.057,  18.1V,  1237656565428126076,  256.11652,  78.42216,  20.48,  18.65,  17.83,  17.47,  17.12,  0.22765,  0.41853,  0.40189,  0.39816,  0.39566,  None,  2.65
-1000000,  B203,  -1000000,  -1000000,  -1000000,  -1000000,  -1000000,  -1000000,  -1000000,  -1000000,  -1000000,  -1000000,  -1000000,  -1000000,  -1000000,  257.05880,  78.78030,  0.053,  18.4V,  1237663269868994874,  257.05835,  78.78030,  20.59,  18.93,  18.04,  17.69,  17.30,  1.00000,  0.90770,  0.74246,  0.75051,  0.97266,  None,  2.55
-1000000,  B204,  -1000000,  -1000000,  -1000000,  -1000000,  -1000000,  -1000000,  -1000000,  -1000000,  -1000000,  -1000000,  -1000000,  -1000000,  -1000000,  256.87130,  78.50250,  0.064,  18.4V,  1237663230678794671,  256.87084,  78.50249,  20.64,  18.86,  17.95,  17.53,  17.23,  1.00000,  0.81185,  0.90883,  0.86276,  0.84428,  None,  2.69
-1000000,  B205,  -1000000,  -1000000,  -1000000,  -1000000,  -1000000,  -1000000,  -1000000,  -1000000,  -1000000,  -1000000,  -1000000,  -1000000,  -1000000,  257.10330,  78.57470,  0.060,  18.1V,  1237663230678794764,  257.10285,  78.57483,  20.52,  18.57,  17.65,  17.23,  16.90,  0.00000,  0.87123,  1.00000,  1.00000,  1.00000,  None,  2.87
-1000000,  B206,  -1000000,  -1000000,  -1000000,  -1000000,  -1000000,  -1000000,  -1000000,  -1000000,  -1000000,  -1000000,  -1000000,  -1000000,  -1000000,  257.19420,  78.61780,  0.055,  17.8V,  1237663230678794794,  257.19385,  78.61772,  20.29,  18.40,  17.52,  17.07,  16.75,  1.00000,  0.52653,  0.50095,  0.61110,  0.48076,  None,  2.77
-1000000,  B207,  -1000000,  -1000000,  -1000000,  -1000000,  -1000000,  -1000000,  -1000000,  -1000000,  -1000000,  -1000000,  -1000000,  -1000000,  -1000000,  254.83080,  78.80640,  0.050,  ...,  1237656565427929433,  254.83146,  78.80643,  20.04,  18.12,  17.23,  16.81,  16.48,  0.68017,  0.25307,  0.41440,  0.50643,  0.73358,  None,  2.81
-1000000,  B208,  -1000000,  -1000000,  -1000000,  -1000000,  -1000000,  -1000000,  -1000000,  -1000000,  -1000000,  -1000000,  -1000000,  -1000000,  -1000000,  254.72080,  78.77110,  0.065,  ...,  1237655749380735320,  254.72148,  78.77128,  21.04,  19.13,  18.29,  17.82,  17.51,  0.82744,  0.98814,  0.85750,  0.87009,  0.86206,  None,  2.75
-1000000,  B209,  -1000000,  -1000000,  -1000000,  -1000000,  -1000000,  -1000000,  -1000000,  -1000000,  -1000000,  -1000000,  -1000000,  -1000000,  -1000000,  255.61630,  78.91830,  0.050,  17.5V,  1237656565427929363,  255.61584,  78.91826,  19.75,  17.98,  17.12,  16.72,  16.40,  1.00000,  1.00000,  1.00000,  1.00000,  1.00000,  None,  2.63
-1000000,  B210,  -1000000,  -1000000,  -1000000,  -1000000,  -1000000,  -1000000,  -1000000,  -1000000,  -1000000,  -1000000,  -1000000,  -1000000,  -1000000,  257.19040,  78.56780,  0.061,  17.0V,  1237663230678794776,  257.19020,  78.56780,  19.45,  17.61,  16.70,  16.26,  15.94,  1.00000,  1.00000,  1.00000,  0.98009,  1.00000,  None,  2.75
-1000000,  B211,  -1000000,  -1000000,  -1000000,  -1000000,  -1000000,  -1000000,  -1000000,  -1000000,  -1000000,  -1000000,  -1000000,  -1000000,  -1000000,  256.37710,  78.92080,  0.057,  ...,  1237663231215665527,  256.37754,  78.92110,  21.39,  19.48,  18.65,  18.26,  17.96,  1.00000,  1.00000,  1.00000,  1.00000,  1.00000,  None,  2.74
-1000000,  B212,  -1000000,  -1000000,  -1000000,  -1000000,  -1000000,  -1000000,  -1000000,  -1000000,  -1000000,  -1000000,  -1000000,  -1000000,  -1000000,  257.31210,  78.63640,  0.060,  16.9V,  1237663230678860058,  257.31158,  78.63651,  19.34,  17.52,  16.64,  16.22,  15.91,  0.00000,  0.37400,  0.39859,  0.48498,  0.53178,  None,  2.70
-1000000,  B213,  -1000000,  -1000000,  -1000000,  -1000000,  -1000000,  -1000000,  -1000000,  -1000000,  -1000000,  -1000000,  -1000000,  -1000000,  -1000000,  254.52040,  78.66080,  0.060,  17.9V,  1237655749380735288,  254.51988,  78.66079,  20.50,  18.40,  17.47,  17.11,  16.79,  0.00000,  0.78374,  0.84055,  0.74714,  0.61650,  None,  3.03
-1000000,  B214,  -1000000,  -1000000,  -1000000,  -1000000,  -1000000,  -1000000,  -1000000,  -1000000,  -1000000,  -1000000,  -1000000,  -1000000,  -1000000,  254.54000,  78.71830,  0.057,  18.1V,  1237655749380735238,  254.53942,  78.71826,  20.41,  18.41,  17.56,  17.14,  16.90,  0.00000,  0.72060,  0.81647,  0.92031,  0.54259,  None,  2.85
-1000000,  B215,  -1000000,  -1000000,  -1000000,  -1000000,  -1000000,  -1000000,  -1000000,  -1000000,  -1000000,  -1000000,  -1000000,  -1000000,  -1000000,  256.80750,  78.88830,  0.055,  16.0V,  1237663269868994850,  256.80715,  78.88841,  18.33,  16.52,  15.59,  15.15,  14.76,  0.93504,  1.00000,  1.00000,  1.00000,  1.00000,  None,  2.74
-1000000,  B216,  -1000000,  -1000000,  -1000000,  -1000000,  -1000000,  -1000000,  -1000000,  -1000000,  -1000000,  -1000000,  -1000000,  -1000000,  -1000000,  257.35130,  78.70500,  0.060,  16.39,  1237663230678860083,  257.35126,  78.70500,  18.76,  16.87,  15.95,  15.49,  15.18,  0.59296,  0.70405,  0.74843,  0.85466,  0.91497,  None,  2.81
-1000000,  B217,  -1000000,  -1000000,  -1000000,  -1000000,  -1000000,  -1000000,  -1000000,  -1000000,  -1000000,  -1000000,  -1000000,  -1000000,  -1000000,  254.48460,  78.64190,  0.060,  18.4V,  1237655749380735302,  254.48405,  78.64185,  20.51,  18.90,  18.01,  17.67,  17.34,  1.00000,  1.00000,  1.00000,  1.00000,  1.00000,  None,  2.50
-1000000,  B218,  -1000000,  -1000000,  -1000000,  -1000000,  -1000000,  -1000000,  -1000000,  -1000000,  -1000000,  -1000000,  -1000000,  -1000000,  -1000000,  257.25380,  78.55060,  0.054,  16.7V,  1237663230678794506,  257.25310,  78.55049,  20.06,  17.22,  16.34,  15.89,  15.69,  0.00000,  0.00000,  0.00000,  0.00000,  0.00000,  None,  3.72
-1000000,  B219,  -1000000,  -1000000,  -1000000,  -1000000,  -1000000,  -1000000,  -1000000,  -1000000,  -1000000,  -1000000,  -1000000,  -1000000,  -1000000,  256.83750,  78.89390,  0.055,  17.1V,  1237663269868994666,  256.83762,  78.89395,  19.76,  17.69,  16.76,  16.38,  16.00,  0.73270,  0.71665,  0.85584,  0.69574,  0.98032,  None,  3.00
-1000000,  B220,  -1000000,  -1000000,  -1000000,  -1000000,  -1000000,  -1000000,  -1000000,  -1000000,  -1000000,  -1000000,  -1000000,  -1000000,  -1000000,  256.15000,  78.38000,  0.058,  17.3V,  1237656565428191392,  256.14994,  78.38003,  20.00,  18.11,  17.22,  16.79,  16.46,  1.00000,  1.00000,  1.00000,  1.00000,  1.00000,  None,  2.78
-1000000,  B221,  -1000000,  -1000000,  -1000000,  -1000000,  -1000000,  -1000000,  -1000000,  -1000000,  -1000000,  -1000000,  -1000000,  -1000000,  -1000000,  254.47210,  78.62360,  0.058,  18.0V,  1237655749380735309,  254.47134,  78.62358,  19.74,  18.33,  17.66,  17.33,  17.12,  1.00000,  1.00000,  1.00000,  0.99638,  1.00000,  None,  2.08
-1000000,  B222,  -1000000,  -1000000,  -1000000,  -1000000,  -1000000,  -1000000,  -1000000,  -1000000,  -1000000,  -1000000,  -1000000,  -1000000,  -1000000,  257.44420,  78.69250,  0.060,  16.58,  1237663230678860106,  257.44600,  78.69338,  19.18,  17.17,  16.22,  15.76,  15.41,  1.00000,  1.00000,  1.00000,  1.00000,  1.00000,  None,  2.96
-1000000,  B223,  -1000000,  -1000000,  -1000000,  -1000000,  -1000000,  -1000000,  -1000000,  -1000000,  -1000000,  -1000000,  -1000000,  -1000000,  -1000000,  257.37580,  78.76280,  0.061,  ...,  1237663269869060317,  257.37624,  78.76268,  19.96,  18.39,  17.49,  17.12,  16.76,  1.00000,  1.00000,  1.00000,  1.00000,  1.00000,  None,  2.46
-1000000,  B224,  -1000000,  -1000000,  -1000000,  -1000000,  -1000000,  -1000000,  -1000000,  -1000000,  -1000000,  -1000000,  -1000000,  -1000000,  -1000000,  254.42580,  78.59190,  0.065,  ...,  1237655749380800755,  254.42606,  78.59202,  19.55,  17.48,  16.60,  16.15,  15.82,  1.00000,  0.85684,  0.83023,  0.85785,  0.91608,  None,  2.95
-1000000,  B225,  -1000000,  -1000000,  -1000000,  -1000000,  -1000000,  -1000000,  -1000000,  -1000000,  -1000000,  -1000000,  -1000000,  -1000000,  -1000000,  256.46000,  78.37640,  0.055,  16.2V,  1237656565428191424,  256.45998,  78.37628,  18.81,  16.72,  15.79,  15.37,  15.04,  1.00000,  1.00000,  1.00000,  1.00000,  1.00000,  None,  3.02
-1000000,  B226,  -1000000,  -1000000,  -1000000,  -1000000,  -1000000,  -1000000,  -1000000,  -1000000,  -1000000,  -1000000,  -1000000,  -1000000,  -1000000,  256.35500,  78.36690,  0.058,  17.0V,  1237656565428191445,  256.35446,  78.36683,  19.32,  17.48,  16.60,  16.19,  15.83,  0.79034,  0.98629,  0.99367,  0.94885,  1.00000,  None,  2.72
-1000000,  B227,  -1000000,  -1000000,  -1000000,  -1000000,  -1000000,  -1000000,  -1000000,  -1000000,  -1000000,  -1000000,  -1000000,  -1000000,  -1000000,  257.44080,  78.55190,  0.062,  ...,  1237663230678860039,  257.44139,  78.55206,  20.14,  17.99,  17.07,  16.60,  16.30,  0.00000,  1.00000,  1.00000,  1.00000,  1.00000,  None,  3.07
-1000000,  B228,  -1000000,  -1000000,  -1000000,  -1000000,  -1000000,  -1000000,  -1000000,  -1000000,  -1000000,  -1000000,  -1000000,  -1000000,  -1000000,  255.16540,  78.95000,  0.061,  ...,  1237656565427929291,  255.16585,  78.95016,  19.07,  18.06,  17.76,  17.53,  17.36,  0.23236,  0.45685,  0.52678,  0.51879,  0.48554,  None,  1.31
-1000000,  B229,  -1000000,  -1000000,  -1000000,  -1000000,  -1000000,  -1000000,  -1000000,  -1000000,  -1000000,  -1000000,  -1000000,  -1000000,  -1000000,  257.56000,  78.65690,  0.056,  16.44,  1237663230678860112,  257.55971,  78.65701,  19.00,  17.02,  16.07,  15.59,  15.22,  1.00000,  0.89010,  0.99143,  0.99397,  0.95348,  None,  2.93
-1000000,  B230,  -1000000,  -1000000,  -1000000,  -1000000,  -1000000,  -1000000,  -1000000,  -1000000,  -1000000,  -1000000,  -1000000,  -1000000,  -1000000,  254.25670,  78.65780,  0.063,  16.58,  1237655749380735264,  254.25787,  78.65739,  19.34,  17.36,  16.45,  16.02,  15.67,  0.60815,  0.20547,  0.29099,  0.34551,  0.46602,  None,  2.90
-1000000,  B231,  -1000000,  -1000000,  -1000000,  -1000000,  -1000000,  -1000000,  -1000000,  -1000000,  -1000000,  -1000000,  -1000000,  -1000000,  -1000000,  256.64630,  78.36560,  0.056,  17.5V,  1237663269332058434,  256.64584,  78.36562,  19.78,  17.99,  17.10,  16.67,  16.38,  1.00000,  1.00000,  1.00000,  1.00000,  1.00000,  None,  2.68
-1000000,  B232,  -1000000,  -1000000,  -1000000,  -1000000,  -1000000,  -1000000,  -1000000,  -1000000,  -1000000,  -1000000,  -1000000,  -1000000,  -1000000,  254.32290,  78.78470,  0.061,  ...,  1237655749380670068,  254.32347,  78.78490,  20.93,  18.82,  18.04,  17.67,  17.40,  0.00000,  0.11645,  0.19480,  0.28827,  0.55751,  None,  2.89
-1000000,  B233,  -1000000,  -1000000,  -1000000,  -1000000,  -1000000,  -1000000,  -1000000,  -1000000,  -1000000,  -1000000,  -1000000,  -1000000,  -1000000,  257.29130,  78.87560,  0.063,  15.9V,  1237663269869060336,  257.29131,  78.87550,  17.66,  16.24,  15.54,  15.15,  14.86,  0.00000,  0.00000,  0.03547,  0.08302,  0.14725,  None,  2.12
-1000000,  B234,  -1000000,  -1000000,  -1000000,  -1000000,  -1000000,  -1000000,  -1000000,  -1000000,  -1000000,  -1000000,  -1000000,  -1000000,  -1000000,  257.19830,  78.43220,  0.056,  17.2V,  1237663269332123864,  257.19824,  78.43241,  19.02,  17.42,  16.70,  16.33,  16.04,  0.98271,  0.73576,  0.65387,  0.52782,  0.48286,  None,  2.32
-1000000,  B235,  -1000000,  -1000000,  -1000000,  -1000000,  -1000000,  -1000000,  -1000000,  -1000000,  -1000000,  -1000000,  -1000000,  -1000000,  -1000000,  254.69500,  78.42280,  0.052,  15.5V,  1237655749380866230,  254.69496,  78.42264,  17.64,  16.01,  15.21,  14.77,  14.46,  0.00000,  0.24775,  0.38279,  0.39373,  0.58611,  None,  2.44
-1000000,  B236,  -1000000,  -1000000,  -1000000,  -1000000,  -1000000,  -1000000,  -1000000,  -1000000,  -1000000,  -1000000,  -1000000,  -1000000,  -1000000,  254.71290,  78.92000,  0.060,  ...,  1237656565427929575,  254.71620,  78.92026,  20.46,  19.09,  18.57,  18.22,  17.88,  0.00000,  0.00000,  0.00000,  0.00000,  0.00000,  None,  1.89
-1000000,  B237,  -1000000,  -1000000,  -1000000,  -1000000,  -1000000,  -1000000,  -1000000,  -1000000,  -1000000,  -1000000,  -1000000,  -1000000,  -1000000,  254.27290,  78.54670,  0.055,  16.04,  1237655749380800778,  254.27251,  78.54662,  18.77,  16.67,  15.72,  15.25,  14.87,  0.85967,  0.99205,  0.96700,  0.98102,  1.00000,  None,  3.05
-1000000,  B238,  -1000000,  -1000000,  -1000000,  -1000000,  -1000000,  -1000000,  -1000000,  -1000000,  -1000000,  -1000000,  -1000000,  -1000000,  -1000000,  254.17040,  78.61810,  0.060,  ...,  1237655749380735301,  254.17059,  78.61809,  19.63,  17.65,  16.73,  16.34,  16.01,  1.00000,  0.94820,  1.00000,  0.98592,  0.97755,  None,  2.90
-1000000,  B239,  -1000000,  -1000000,  -1000000,  -1000000,  -1000000,  -1000000,  -1000000,  -1000000,  -1000000,  -1000000,  -1000000,  -1000000,  -1000000,  257.64000,  78.56500,  0.065,  16.68,  1237663230678860096,  257.63954,  78.56500,  19.44,  17.31,  16.36,  15.89,  15.54,  0.56290,  1.00000,  1.00000,  1.00000,  1.00000,  None,  3.08
-1000000,  B240,  -1000000,  -1000000,  -1000000,  -1000000,  -1000000,  -1000000,  -1000000,  -1000000,  -1000000,  -1000000,  -1000000,  -1000000,  -1000000,  254.19670,  78.78310,  0.057,  16.40,  1237655749380669721,  254.19828,  78.78269,  18.40,  16.77,  15.95,  15.53,  15.20,  0.43845,  0.68893,  0.79919,  0.90205,  0.95433,  None,  2.46
-1000000,  B241,  -1000000,  -1000000,  -1000000,  -1000000,  -1000000,  -1000000,  -1000000,  -1000000,  -1000000,  -1000000,  -1000000,  -1000000,  -1000000,  254.95420,  78.97220,  0.059,  ...,  1237656565427864068,  254.95592,  78.97228,  19.99,  18.73,  18.12,  17.73,  17.50,  0.52626,  0.00000,  0.00000,  0.00000,  0.03130,  None,  1.87
-1000000,  B242,  -1000000,  -1000000,  -1000000,  -1000000,  -1000000,  -1000000,  -1000000,  -1000000,  -1000000,  -1000000,  -1000000,  -1000000,  -1000000,  257.17420,  78.39580,  0.057,  17.9V,  1237663269332123998,  257.17345,  78.39589,  19.91,  18.32,  17.52,  17.12,  16.80,  0.70084,  0.24972,  0.15048,  0.23303,  0.11318,  None,  2.40
-1000000,  B243,  -1000000,  -1000000,  -1000000,  -1000000,  -1000000,  -1000000,  -1000000,  -1000000,  -1000000,  -1000000,  -1000000,  -1000000,  -1000000,  257.69130,  78.53750,  0.063,  15.11,  1237663230678859846,  257.70304,  78.53820,  18.06,  16.15,  15.22,  14.78,  14.46,  0.42308,  0.71885,  0.70559,  0.78193,  0.84137,  None,  2.84
-1000000,  B244,  -1000000,  -1000000,  -1000000,  -1000000,  -1000000,  -1000000,  -1000000,  -1000000,  -1000000,  -1000000,  -1000000,  -1000000,  -1000000,  257.09750,  78.37420,  0.058,  17.2V,  1237663269332123802,  257.09709,  78.37427,  19.20,  17.59,  16.90,  16.59,  16.33,  0.64591,  0.38195,  0.37049,  0.38997,  0.33511,  None,  2.30
-1000000,  B245,  -1000000,  -1000000,  -1000000,  -1000000,  -1000000,  -1000000,  -1000000,  -1000000,  -1000000,  -1000000,  -1000000,  -1000000,  -1000000,  255.04460,  79.00440,  0.058,  16.44,  1237656565427863896,  255.04587,  79.00426,  19.08,  17.19,  16.28,  15.86,  15.50,  1.00000,  0.95009,  0.98760,  1.00000,  1.00000,  None,  2.81
-1000000,  B246,  -1000000,  -1000000,  -1000000,  -1000000,  -1000000,  -1000000,  -1000000,  -1000000,  -1000000,  -1000000,  -1000000,  -1000000,  -1000000,  257.63000,  78.48610,  0.053,  16.54,  1237663269332189441,  257.63086,  78.48602,  18.78,  17.19,  16.35,  15.93,  15.59,  0.79391,  0.21101,  0.32570,  0.40641,  0.47415,  None,  2.43
-1000000,  B247,  -1000000,  -1000000,  -1000000,  -1000000,  -1000000,  -1000000,  -1000000,  -1000000,  -1000000,  -1000000,  -1000000,  -1000000,  -1000000,  255.45500,  79.03780,  0.064,  15.6,  1237663231215599942,  255.46753,  79.03313,  23.69,  19.86,  19.06,  18.95,  19.15,  1.00000,  0.00000,  0.00000,  0.00000,  0.00000,  None,  4.63
-1000000,  B248,  -1000000,  -1000000,  -1000000,  -1000000,  -1000000,  -1000000,  -1000000,  -1000000,  -1000000,  -1000000,  -1000000,  -1000000,  -1000000,  255.53040,  78.29170,  0.059,  15.55,  1237655749380931763,  255.53025,  78.29165,  17.59,  16.20,  15.53,  15.12,  14.84,  0.50600,  0.34274,  0.39548,  0.60820,  0.79340,  None,  2.06
-1000000,  B249,  -1000000,  -1000000,  -1000000,  -1000000,  -1000000,  -1000000,  -1000000,  -1000000,  -1000000,  -1000000,  -1000000,  -1000000,  -1000000,  256.80920,  78.32000,  0.059,  ...,  1237663269332058446,  256.81157,  78.31995,  19.54,  17.84,  17.00,  16.63,  16.33,  1.00000,  0.43244,  0.49447,  0.48175,  0.65965,  None,  2.55
-1000000,  B250,  -1000000,  -1000000,  -1000000,  -1000000,  -1000000,  -1000000,  -1000000,  -1000000,  -1000000,  -1000000,  -1000000,  -1000000,  -1000000,  254.07830,  78.53530,  0.061,  ...,  1237655749380800776,  254.07845,  78.53548,  19.74,  17.77,  16.88,  16.48,  16.10,  1.00000,  0.91766,  0.94999,  0.93542,  0.96875,  None,  2.86
-1000000,  B251,  -1000000,  -1000000,  -1000000,  -1000000,  -1000000,  -1000000,  -1000000,  -1000000,  -1000000,  -1000000,  -1000000,  -1000000,  -1000000,  253.99920,  78.77110,  0.061,  16.05,  1237655749380669716,  253.99656,  78.77133,  21.87,  19.22,  17.84,  17.18,  16.79,  0.00000,  0.00000,  1.00000,  1.00000,  1.00000,  None,  4.03
-1000000,  B252,  -1000000,  -1000000,  -1000000,  -1000000,  -1000000,  -1000000,  -1000000,  -1000000,  -1000000,  -1000000,  -1000000,  -1000000,  -1000000,  256.60000,  79.04360,  0.059,  ...,  1237663231215730858,  256.60080,  79.04392,  20.09,  18.49,  17.72,  17.33,  17.03,  1.00000,  1.00000,  1.00000,  1.00000,  1.00000,  None,  2.37
-1000000,  B253,  -1000000,  -1000000,  -1000000,  -1000000,  -1000000,  -1000000,  -1000000,  -1000000,  -1000000,  -1000000,  -1000000,  -1000000,  -1000000,  257.95630,  78.59810,  0.059,  ...,  1237663230678860165,  257.95651,  78.59770,  19.44,  17.62,  16.67,  16.24,  15.90,  0.21364,  0.81246,  0.86461,  0.92546,  0.89889,  None,  2.77
-1000000,  B254,  -1000000,  -1000000,  -1000000,  -1000000,  -1000000,  -1000000,  -1000000,  -1000000,  -1000000,  -1000000,  -1000000,  -1000000,  -1000000,  257.31290,  78.36610,  0.056,  ...,  1237663269332123867,  257.31303,  78.36650,  19.40,  17.63,  16.84,  16.47,  16.25,  1.00000,  0.90949,  0.86111,  0.81836,  0.58483,  None,  2.56
-1000000,  B255,  -1000000,  -1000000,  -1000000,  -1000000,  -1000000,  -1000000,  -1000000,  -1000000,  -1000000,  -1000000,  -1000000,  -1000000,  -1000000,  257.34130,  78.36830,  0.054,  ...,  1237663269332123887,  257.34153,  78.36829,  19.50,  17.59,  16.68,  16.26,  15.97,  1.00000,  1.00000,  1.00000,  1.00000,  1.00000,  None,  2.83
