B1,1237656565428060275,255.899481045164,78.6289115562433,2582,301,6,69,GALAXY,16.70298,14.67031,13.73245,13.27251,12.94528,0.742205,0.7562469,0.7832484,0.8074402,0.805477
B2,1237656565428060276,255.89147511204,78.629873502755,2582,301,6,69,GALAXY,19.80289,17.6552,16.68518,16.2503,15.81477,0,0,0,0,0
B3,1237656565428060273,255.872399751181,78.6319376455833,2582,301,6,69,GALAXY,18.00046,15.88447,14.91594,14.45812,14.09925,0.9721026,1,1,1,1
B4,1237656565428060594,255.761569839703,78.5986783569158,2582,301,6,69,GALAXY,17.80232,15.85112,14.90784,14.46617,14.11808,1,1,1,1,1
B5,1237656565428060462,255.875207847242,78.6650613543021,2582,301,6,69,GALAXY,18.20023,16.12107,15.14128,14.67855,14.33505,1,1,1,1,1
B6,1237656565427995029,255.217578111798,78.6892028816435,2582,301,6,68,GALAXY,18.59993,16.55278,15.58049,15.09895,14.71287,1,0.9625217,0.9666821,1,1
B7,1237663230678794604,256.414640552756,78.6261643662868,4134,301,5,44,GALAXY,18.00557,16.2044,15.3197,14.86426,14.56313,0.629153,0.9872823,1,1,1
B8,1237663269868994759,256.734310093216,78.6858754138952,4143,301,6,23,GALAXY,18.54917,16.46069,15.51411,15.08664,14.76075,1,0.9985151,1,0.9326354,0.9873055
B9,1237663230678794280,256.680106160566,78.5991949645094,4134,301,5,44,GALAXY,18.47456,17.98252,24.80801,16.32107,15.91791,1,1,0,1,1
B10,1237663269868929406,255.985620233751,78.7454138505071,4143,301,6,22,GALAXY,18.8086,16.60802,15.65011,15.19026,14.85286,1,0.8266627,0.831704,0.8580559,0.7556607
B11,1237656565428060249,255.562443998193,78.5963854815388,2582,301,6,69,GALAXY,18.44414,16.4244,15.5008,15.06619,14.70793,1,1,1,1,1
B12,1237656565427994941,255.842892852296,78.7821341566499,2582,301,6,68,GALAXY,19.02757,17.37023,16.53733,16.04446,15.64679,0,0,0.03959159,0.07749198,0.1672875
B13,1237663269868929086,256.200362782793,78.641432978566,4143,301,6,22,GALAXY,17.74756,15.73835,14.76639,14.30279,13.96613,0.9397729,1,1,1,0.9809743
B14,1237656565427995051,255.347294692113,78.6875305537729,2582,301,6,68,GALAXY,17.78943,16.42016,15.77276,15.3852,15.12256,0,0,0,0,0.04352518
B15,1237655749380800844,254.576556566205,78.4926756950293,2392,301,6,16,GALAXY,17.43568,15.68155,15.07063,14.67446,14.45017,0.1587804,0.04771183,0.1035669,0.1397048,0.2774698
B16,1237656565428060200,255.798985262095,78.6749950192832,2582,301,6,69,GALAXY,18.7357,16.78277,15.85563,15.41013,15.08075,0.972049,0.9713792,0.9227958,0.9532364,0.9074285
B17,1237663269868929392,256.06787943883,78.6792073469637,4143,301,6,22,GALAXY,18.60702,16.62029,15.69036,15.22106,14.87216,0.5077237,1,0.9566921,1,0.9307006
B18,1237656565428060284,256.113241507196,78.6403914666562,2582,301,6,69,GALAXY,16.90444,14.38401,13.40777,12.92368,12.60581,0.339191,0.423045,0.4818009,0.5184404,0.4491285
B19,1237656565428060521,255.704745273615,78.6413190187581,2582,301,6,69,GALAXY,19.19733,17.13354,16.18607,15.74961,15.39026,0.9042974,0.9084672,0.9468024,0.9249474,0.934358
B20,1237663269868929591,256.236629851115,78.7182536387443,4143,301,6,22,GALAXY,19.44014,18.05761,17.3716,16.96437,16.70869,0.3442389,0,0.009740112,0.02125968,0.1091624
B21,1237656565427994915,255.573723766144,78.7644029635982,2582,301,6,68,GALAXY,19.20587,17.13057,16.27758,15.87553,15.55987,0.2344191,0.5502618,0.6134962,0.6752672,0.7070941
B22,1237663230678728929,256.390994358208,78.5865921630867,4134,301,5,43,GALAXY,18.14285,16.15585,15.20296,14.72534,14.39179,0.7961283,0.7939872,0.8379902,0.8965164,0.9089545
B23,1237656565427994914,255.576923746152,78.7675919544971,2582,301,6,68,GALAXY,18.02289,16.65356,15.94943,15.51658,15.24713,0.08640885,0.3154736,0.3599541,0.3596425,0.3610706
B24,1237656565428060547,255.373675177132,78.6020594919071,2582,301,6,69,GALAXY,18.88571,16.89462,15.93735,15.46654,15.09187,0.5939927,1,1,1,1
B25,1237663269868929533,256.202767979922,78.8058595880867,4143,301,6,22,GALAXY,18.2382,16.23667,15.26563,14.82328,14.50967,0.9566936,1,1,1,1
B26,1237663269868994713,256.299690187122,78.8038634653311,4143,301,6,23,GALAXY,18.50108,17.22266,16.5916,16.21416,15.99934,0.8528957,0.4101136,0.4057423,0.3573678,0.4447866
B27,1237656565427995060,255.133782802446,78.6699790017282,2582,301,6,68,GALAXY,18.39784,16.51213,15.58031,15.13432,14.78755,1,1,1,1,1
B28,1237656565427994887,255.24649320816,78.749811980483,2582,301,6,68,GALAXY,18.24574,16.28353,15.37054,14.90499,14.5327,0.7439145,0.8749135,0.9664839,1,1
B29,1237656565427994707,255.250234992631,78.7585640285252,2582,301,6,68,GALAXY,19.49421,18.17276,17.58907,17.20638,16.95008,1,0.4481483,0.3693243,0.4980413,0.3357671
B30,1237656565428060420,255.12229679527,78.634641635648,2582,301,6,69,GALAXY,18.86874,17.0654,16.11685,15.65032,15.26528,1,1,1,1,1
B31,1237663230678794582,256.54858858961,78.5471415792539,4134,301,5,44,GALAXY,18.15517,16.08634,15.10913,14.63704,14.28872,1,1,1,1,1
B32,1237663269868994576,256.242236942691,78.835545879061,4143,301,6,23,STAR,18.18006,16.23774,15.52518,15.34482,15.2368,0,0,1,0,1
B33,1237656565428125957,255.97333316834,78.4865114483894,2582,301,6,70,GALAXY,19.53556,18.18484,17.59169,17.31516,17.05067,0.3395979,0.09630125,0.1167922,0.08678688,0.01648332
B34,1237663231215599976,255.893483824028,78.8485479345389,4134,301,6,43,GALAXY,18.35408,16.96173,16.27503,15.86594,15.61377,0,0,0,0,0.1052759
B35,1237663230678794442,256.862409940244,78.6059445983786,4134,301,5,44,GALAXY,19.09721,17.17233,16.37618,15.95413,15.70136,0,0.07663193,0.2244279,0.3332251,0.4564508
B36,1237663269868994718,256.230578295948,78.8522262652562,4143,301,6,23,GALAXY,19.80752,18.19998,17.44226,17.03988,16.7729,0,0,0.07077045,0.1020319,0.4321191
B37,1237656565427929453,255.694543967933,78.8627161887235,2582,301,6,67,GALAXY,18.32475,16.29056,15.346,14.88699,14.51668,0.9648463,1,1,1,1
B38,1237663269868994787,256.618219529723,78.8207707715476,4143,301,6,23,GALAXY,19.47391,17.96672,17.27746,16.86689,16.55509,0.3902836,0.2156176,0.1756852,0.1141065,0.3397605
B39,1237656565427929429,255.550945228903,78.8591315417707,2582,301,6,67,GALAXY,18.81056,16.97897,16.10238,15.59498,15.20552,0,0,0.1277353,0.2170267,0.3836288
B40,1237656565427929436,255.393745613047,78.8462652205827,2582,301,6,67,GALAXY,19.32986,17.67642,16.79182,16.24787,15.90355,0.08631581,0.3105351,0.63142,0.8555216,1
B41,1237663269868994741,256.389986149323,78.8546188423727,4143,301,6,23,GALAXY,18.09859,16.68459,16.00619,15.55067,15.34695,0.2422302,0.02322951,0.2845657,0.3710033,0.4665086
B42,1237663230678794779,257.045106501351,78.6534350890285,4134,301,5,44,GALAXY,19.18621,18.00641,17.3637,17.0075,16.7773,0.3061081,0.2240162,0.1417386,0.169634,0.06609148
B43,1237656565427929475,255.08572072117,78.8104483863448,2582,301,6,67,GALAXY,18.71266,16.75304,15.80499,15.32922,14.96167,0.2749535,0.7899187,0.8948779,0.9470931,1
B44,1237656565427929441,255.1073332319,78.8240162816639,2582,301,6,67,GALAXY,19.35859,17.63301,16.8545,16.41577,16.07313,0,0,0,0,0.03731792
B45,1237663230678794662,256.815092066668,78.5021683369139,4134,301,5,44,GALAXY,19.50269,17.78478,16.9217,16.3983,16.07149,0,0,0,0,0.06053039
B46,1237663231215665398,256.060428112864,78.9099566868649,4134,301,6,44,GALAXY,19.53127,18.47887,18.13574,17.80482,17.79931,0,0.2200487,0.342583,0.3563698,0.2145209
B47,1237663230678794725,257.012861161252,78.5440978853882,4134,301,5,44,GALAXY,20.13989,18.51904,17.61087,17.13532,16.81366,0.2558539,0,0,0.06998965,0.1704997
B48,1237656565427929379,255.569775722116,78.9029401162958,2582,301,6,67,GALAXY,19.85309,18.45416,17.88189,17.44818,17.24004,0.9722126,0.217928,0.402393,0.2594452,0.3104949
B49,1237655749380800875,254.905982715984,78.4951960338485,2392,301,6,16,GALAXY,18.66176,16.97127,16.11808,15.68489,15.32933,0.1210374,0.1196836,0.3165031,0.3613653,0.463855
B50,1237655749380735063,254.587352314234,78.7235147772488,2392,301,6,15,GALAXY,19.39407,17.68188,16.89798,16.49368,16.23813,0.2884253,0.233282,0.3315464,0.5809125,0.5230665
B51,1237663269332058258,256.638383022723,78.4222635010469,4143,301,5,22,GALAXY,18.55976,16.62299,15.70522,15.23102,14.89894,0.6573219,0.5543367,0.4739249,0.5243183,0.5978978
B52,1237663269332058626,256.549382683402,78.4104210655834,4143,301,5,22,GALAXY,19.47275,18.1523,17.52024,17.12793,16.89437,0.05239273,0,0,0,0
B53,1237663230678794417,257.139081117532,78.498380239265,4134,301,5,44,GALAXY,17.99263,15.87979,14.92031,14.44202,14.11387,1,1,1,1,1
B54,1237663269869060123,257.241465181533,78.8375214422143,4143,301,6,24,GALAXY,18.46478,16.35382,15.42722,14.98717,14.64622,0.5991181,0.9590374,0.9900873,0.9500954,1
B55,1237656565427929306,255.134542667135,78.9360863537849,2582,301,6,67,GALAXY,19.00308,17.03312,16.10772,15.62565,15.22942,0.628851,0.5401333,0.65013,0.7099101,0.766538
B56,1237663230678794786,257.329367213235,78.5043451703819,4134,301,5,44,GALAXY,19.7235,17.83797,16.9079,16.43342,16.1188,1,0.7192614,0.8216531,0.9241986,0.980367
B57,1237656565428191416,255.85504794879,78.3440943600794,2582,301,6,71,GALAXY,18.4187,17.23614,16.70114,16.31022,16.13369,0,0,0,0.01650112,0.1038119
B58,1237663230678859802,257.43844756867,78.518537472491,4134,301,5,45,GALAXY,19.17995,17.23081,16.35418,15.89731,15.55396,0.203413,0.7954267,0.8689387,0.9499939,1
B59,1237656565428060410,255.788401935228,78.6888417240442,2582,301,6,69,GALAXY,19.17676,17.27724,16.36783,15.92666,15.57051,0.9430838,1,1,1,1
B60,1237663231215665231,256.155667193329,78.8888857828523,4134,301,6,44,GALAXY,19.19084,17.89357,17.5511,17.25821,17.20393,0.4256413,0.4941769,0.4632533,0.5375134,0.6697748
B61,1237663269868994834,256.979324583922,78.7470759587906,4143,301,6,23,GALAXY,19.14963,17.36313,16.4453,16.04538,15.70606,0.2882059,0.7101489,0.7684519,0.5941517,0.7119853
B62,1237663230678860038,257.416130812698,78.5520170182894,4134,301,5,45,GALAXY,17.95255,16.22254,15.37191,14.92419,14.604,0,0.5691106,0.7612498,0.9089648,1
B63,1237663230678794278,256.704022488865,78.5926399535717,4134,301,5,44,GALAXY,24.63472,17.36038,16.2435,15.69132,15.55681,1,0.7037485,1,1,0.4835697
B64,1237663269868994760,256.751961900816,78.6897789579383,4143,301,6,23,GALAXY,20.61232,18.4701,17.51958,17.13471,16.81514,0,0.7556141,0.8564651,0.7859103,0.8197092
B65,1237655749380800577,254.509241151955,78.5633319829249,2392,301,6,16,GALAXY,18.53087,16.25383,15.17848,14.87285,14.25763,1,1,1,1,1
B66,1237656565427995115,255.334681155573,78.7552275636813,2582,301,6,68,GALAXY,20.52701,18.93993,18.20782,17.78416,17.53884,1,0.1005797,0.1388703,0.1476779,0.01313499
B67,1237663269868929419,256.14933222796,78.6681535775556,4143,301,6,22,GALAXY,19.68139,18.04998,17.17836,16.74996,16.47515,0,0.7816286,0.7329015,0.8478819,0.9197674
B68,1237663269868929423,255.908862205752,78.7828224500436,4143,301,6,22,GALAXY,20.33916,18.45026,17.52826,17.08714,16.78442,0,0.9720005,0.9237552,0.9340293,0.8769537
B69,1237655749380800829,254.717510026578,78.5172041780283,2392,301,6,16,GALAXY,19.0014,16.98132,15.98593,15.51065,15.13131,0.8188763,0.8257229,0.8514701,0.8540809,0.9004214
B70,1237663230678794711,256.782249710507,78.6427366822147,4134,301,5,44,GALAXY,18.54902,16.60246,15.64218,15.17788,14.85404,1,0.9656267,0.9924455,0.9979454,0.9752684
B71,1237656565428060463,255.898534287528,78.6649284649144,2582,301,6,69,GALAXY,19.37569,17.27476,16.33756,15.881,15.52003,1,0.9439971,0.9554299,0.9797706,0.9939902
B72,1237656565428061022,255.952643626701,78.6457218935736,2582,301,6,69,GALAXY,25.94074,21.64695,19.96739,19.41238,19.1888,0,1,1,1,0.9817939
B73,1237663269868929212,256.286138702129,78.6849724032987,4143,301,6,22,STAR,19.40607,17.44981,16.66214,16.36099,16.32247,1,1,0,1,0
B74,1237656565428060458,255.905212612921,78.6750880263432,2582,301,6,69,GALAXY,20.53516,18.51686,17.61463,17.18976,16.83506,1,0.9814739,0.9243146,0.9402848,1
B75,1237656565428060534,255.925578832055,78.6544082523188,2582,301,6,69,GALAXY,21.54961,19.66547,18.79634,18.40788,18.11965,1,1,0.9443424,1,1
B76,1237656565428060510,255.990797736736,78.6595612645165,2582,301,6,69,GALAXY,24.16854,19.72959,18.86621,18.41681,18.17666,0,0.2120792,0.5794053,0.4954848,0.2574357
B77,1237656565428060201,255.802587586843,78.6722809395959,2582,301,6,69,GALAXY,20.89939,18.88011,17.97029,17.55348,17.23268,0.9351375,1,1,1,1
B78,1237656565428060282,255.907130522687,78.6408025610418,2582,301,6,69,GALAXY,19.42312,17.29728,16.37787,15.93901,15.60629,0.8893659,0.8736434,0.9232414,0.903536,0.92338
B79,1237656565428060279,255.985681613367,78.6265394022694,2582,301,6,69,GALAXY,18.97398,16.89155,15.9942,15.57197,15.28052,0.7710435,0.9623575,0.9673775,0.9805261,0.98834
B80,1237663269868929096,256.124940671283,78.6464839553561,4143,301,6,22,GALAXY,20.06081,18.20782,17.37329,16.88331,16.56933,0.4269093,1,0.9963364,1,0.8718529
B81,1237656565428060302,255.939214269439,78.623116346568,2582,301,6,69,GALAXY,23.7149,21.12198,20.26925,19.95959,19.90518,0,0,0,0,0
B82,1237656565428060274,256.055988943947,78.6287394959412,2582,301,6,69,GALAXY,17.35426,15.09748,14.1407,13.64732,13.33781,0.637817,0.5650166,0.5701299,0.6486282,0.6433877
B83,1237656565428060540,255.74459839567,78.6377642140067,2582,301,6,69,GALAXY,20.49446,18.4351,17.51924,17.11472,16.78262,0.514019,0.9906119,0.9431851,0.9377345,0.9164433
B84,1237656565428060281,255.960739772764,78.6172630465164,2582,301,6,69,STAR,20.63045,18.70808,17.74014,17.40742,16.94131,0,0,0,0,0
B85,1237656565428060290,255.886442184635,78.6172267058985,2582,301,6,69,GALAXY,21.21679,19.33575,18.4586,18.07112,17.68212,1,0,0,0,0
B86,1237656565427995784,255.947646204107,78.7125247386737,2582,301,6,68,GALAXY,27.03332,22.87485,21.14648,20.5385,20.31004,1,1,0.9393253,0,0.9682333
B87,1237656565427995072,255.741938601896,78.7014433539127,2582,301,6,68,GALAXY,20.4733,18.58839,17.6999,17.2769,17.09344,1,0.7851706,0.7506652,0.811996,0.7124855
B88,1237656565428060286,255.909172721837,78.6149825740539,2582,301,6,69,GALAXY,20.38218,18.30825,17.40289,16.99254,16.65763,0.3659262,0.9735743,0.9307116,0.889636,0.8304242
B89,1237663269868929432,256.091162167411,78.7083478118704,4143,301,6,22,GALAXY,19.60732,17.62883,16.7169,16.29725,16.0132,1,1,1,1,1
B90,1237663269868929451,256.197267972483,78.6753047558261,4143,301,6,22,GALAXY,20.17356,18.32938,17.43759,17.02438,16.75111,0.9777542,0.664517,0.5767283,0.6797916,0.5486892
B91,1237663269868929454,256.168524989774,78.6918897162471,4143,301,6,22,GALAXY,20.8179,18.97036,18.09392,17.68566,17.4621,0.9780198,0.7107686,0.5717819,0.5882545,0.4884082
B92,1237656565428060280,255.869203713623,78.6140584580841,2582,301,6,69,GALAXY,19.68873,17.49496,16.56595,16.12855,15.76735,0.8354451,0.9676792,0.9677295,0.9414658,0.9322183
B93,1237656565428060412,255.65540588195,78.6764298896849,2582,301,6,69,GALAXY,19.97028,17.92516,16.97743,16.55394,16.1778,0.5562113,1,1,1,1
B94,1237663269868929445,256.136848911983,78.7055265263968,4143,301,6,22,GALAXY,19.38391,17.69296,16.82511,16.42469,16.14721,0.6305738,0.9745474,0.9685223,0.9855883,0.9077265
B95,1237663269868929450,256.215775113016,78.6741334517949,4143,301,6,22,GALAXY,19.72104,17.90797,16.95378,16.5017,16.20087,1,0.9415752,0.9368169,0.9691495,0.8200002
B96,1237656565428060446,255.643925101536,78.6602299327561,2582,301,6,69,GALAXY,19.37011,17.42319,16.54173,16.12965,15.90421,0.9575368,0.8743395,0.8845303,0.8964694,0.7184002
B97,1237663230678728786,256.169171296836,78.6281088710194,4134,301,5,43,GALAXY,19.64476,17.78369,16.8557,16.4197,16.16507,1,0.8265915,0.9272964,0.952028,0.955642
B98,1237656565428060581,255.755855414302,78.614315577203,2582,301,6,69,GALAXY,18.79481,16.80177,15.85007,15.41189,15.06497,0.5542663,0.6792467,0.6965775,0.6762608,0.7127164
B99,1237663269868929463,256.264027701507,78.6673598616249,4143,301,6,22,GALAXY,18.95953,16.97649,16.04786,15.60052,15.2627,1,1,0.9967861,1,0.960187
B100,1237663230678728782,256.182579735535,78.6227688680588,4134,301,5,43,GALAXY,18.87324,16.79671,15.85256,15.39445,15.0861,1,0.9336095,0.9966215,1,1
B101,1237663230678728789,256.205649469352,78.6284601151837,4134,301,5,43,GALAXY,20.65601,18.36237,17.42633,17.11351,17.36926,0.3425267,0.8303112,0.8190392,1,1
B102,1237656565427995041,255.84094192049,78.731524896689,2582,301,6,68,GALAXY,19.65656,17.80636,16.93354,16.507,16.15294,1,1,1,1,1
B103,1237663230678728787,256.240831150772,78.6368651055421,4134,301,5,43,GALAXY,20.49666,18.59422,17.66239,17.22575,16.96447,0.9953195,0.6468752,0.6282712,0.7098316,0.7875462
B104,1237656565428060294,256.088406213174,78.6059607968501,2582,301,6,69,GALAXY,20.44177,18.42178,17.53603,17.13285,16.86934,0,0.4490735,0.4895612,0.4605367,0.4837999
B105,1237663269868929484,256.243163477713,78.7009169336966,4143,301,6,22,GALAXY,19.48905,17.54657,16.65464,16.25986,15.98938,1,1,1,1,0.9565567
B106,1237656565428061580,255.601772888961,78.6447064363833,2582,301,6,69,GALAXY,24.06485,22.74239,22.15986,21.23487,22.13391,1,0,0,0.8959368,0
B107,1237663269868929407,255.982373852332,78.738887862943,4143,301,6,22,GALAXY,20.59332,18.39034,17.5236,17.11017,16.9155,0.849375,0.7592005,0.6952894,0.835781,0.7657006
B108,1237656565428060503,255.571157108508,78.6383490183611,2582,301,6,69,GALAXY,19.15855,17.29544,16.36433,15.92353,15.5729,1,0.9835996,0.9912096,0.9970332,1
B109,1237656565428060630,255.856649328594,78.5916866542127,2582,301,6,69,GALAXY,20.49794,18.8688,17.97859,17.56495,17.23262,0.2970777,0.486925,0.4867612,0.5079914,0.4629305
B110,1237656565427995037,255.632669103196,78.7181465750824,2582,301,6,68,GALAXY,19.63874,17.53658,16.60707,16.1684,15.78192,1,0.9280816,0.9309005,0.9567395,0.964702
B111,1237663230678729233,256.326580556495,78.6460227679836,4134,301,5,43,GALAXY,19.42766,17.38257,16.40344,15.93679,15.60886,0.4893545,0.7132817,0.7794881,0.8585623,0.8729196
B112,1237663269868929502,256.349948307515,78.6730370938091,4143,301,6,22,GALAXY,20.74327,18.28858,17.38525,16.96366,16.68236,0.655476,0.8190719,0.858305,0.9463015,0.8825834
B113,1237656565427994975,255.700089473684,78.740909993287,2582,301,6,68,GALAXY,17.39522,15.42879,14.47701,14.03926,13.73605,1,1,1,1,1
B114,1237663230678794544,256.362716155491,78.6464699129865,4134,301,5,44,GALAXY,19.25071,17.14226,16.1558,15.6833,15.35815,0.5031008,0.7994965,0.9345883,0.9879519,0.8817945
B115,1237663269868929506,256.3772476019,78.6719374824012,4143,301,6,22,GALAXY,18.76446,16.8673,15.956,15.52866,15.22243,1,1,0.9496536,1,0.9745714
B116,1237656565427995019,255.570808126811,78.7213545009448,2582,301,6,68,GALAXY,19.09663,17.20636,16.29788,15.86604,15.52032,1,1,1,1,1
B117,1237656565428060668,256.050420668753,78.5800401497829,2582,301,6,69,GALAXY,19.9533,18.11119,17.15002,16.70664,16.33835,0.9040818,0.9309792,0.9269342,0.9391285,1
B118,1237656565428060666,255.946277723591,78.5764398725638,2582,301,6,69,GALAXY,19.62233,17.79306,16.91798,16.51154,16.20497,0.6328593,0.9064611,0.9155831,0.9411305,0.9473379
B119,1237663230678794545,256.385921203338,78.6504373033042,4134,301,5,44,GALAXY,19.56103,17.68007,16.78386,16.34322,16.03314,0.8897778,0.9476364,0.9750551,1,0.9305856
B120,1237656565428060623,255.729523238781,78.5843754052922,2582,301,6,69,GALAXY,18.98878,17.2239,16.34901,15.97335,15.6707,0.1665914,0.4438816,0.4676517,0.4320896,0.4681725
B121,1237656565428060248,255.583442373599,78.6034330283183,2582,301,6,69,GALAXY,19.48868,17.36575,16.45026,16.0095,15.66026,0.8483286,1,1,0.9963951,0.9910967
B122,1237663269868929597,256.389328106028,78.6948422401741,4143,301,6,22,GALAXY,21.27441,18.75953,17.88235,17.43602,17.23074,1,1,0.9419742,1,0.8596196
B123,1237663269868929460,256.079311334447,78.7569480652304,4143,301,6,22,STAR,22.17192,19.22587,17.71724,16.85402,16.4427,1,1,0,1,1
B124,1237656565427994782,255.493065618777,78.7104939459585,2582,301,6,68,STAR,18.70445,17.50871,17.06266,16.90413,16.84776,0,0,1,1,1
B125,1237663269868929588,256.117629893985,78.7577434224948,4143,301,6,22,GALAXY,21.16302,18.91973,18.06547,17.70076,17.43574,0,0.8671207,0.9054412,0.7794914,0.4975451
B126,1237656565428060250,255.594555518097,78.5937996236504,2582,301,6,69,GALAXY,19.41567,17.21283,16.27194,15.82327,15.46369,0.9397239,0.9414055,0.9334961,0.9492022,0.9964568
B127,1237663269868929524,256.448869091563,78.6657952119944,4143,301,6,22,GALAXY,21.00272,19.04274,18.13803,17.74387,17.51794,1,0.9414592,1,1,1
B128,1237656565427994967,255.612329418831,78.7470230761751,2582,301,6,68,GALAXY,19.71962,17.72504,16.7881,16.35964,16.00899,1,1,1,1,1
B129,1237656565427994961,255.805504170293,78.7655436916443,2582,301,6,68,GALAXY,19.41104,17.34906,16.40143,15.94807,15.57227,0.9119339,1,1,1,1
B130,1237663230678728933,256.246820059097,78.5844400993279,4134,301,5,43,GALAXY,19.36006,17.38577,16.45182,15.94345,15.69124,0.971836,0.6586767,0.6238941,0.7923183,0.7179437
B131,1237656565428060689,256.197569442461,78.5758105520408,2582,301,6,69,GALAXY,19.38158,17.49917,16.56434,16.10664,15.72868,0.2521261,0.8830155,0.8806878,0.9070622,1
B132,1237656565427994958,255.589837270973,78.7504953188775,2582,301,6,68,GALAXY,19.95773,18.06325,17.15492,16.72498,16.38,0.7728854,1,1,1,1
B133,1237656565427995567,255.381259313414,78.6695177747694,2582,301,6,68,STAR,25.90331,21.2629,19.76251,18.94329,18.45421,1,0,0,1,1
B134,1237656565428060229,255.433748613167,78.6147436334409,2582,301,6,69,GALAXY,20.20787,18.15272,17.28123,16.85882,16.62547,0.8423434,0.3293178,0.2737544,0.299012,0.3134642
B135,1237656565428060720,256.017020228908,78.5562311911246,2582,301,6,69,GALAXY,19.53415,17.53067,16.58974,16.15264,15.80078,0.9795599,1,1,1,1
B136,1237663230678729376,256.382290117213,78.5971739088319,4134,301,5,43,GALAXY,19.46063,17.90392,17.09573,16.70088,16.45237,0.9039633,0.5851623,0.4490909,0.5354421,0.5822589
B137,1237656565427994949,255.651295024173,78.7660320131666,2582,301,6,68,GALAXY,19.25137,17.33002,16.38593,15.93527,15.58165,0.8697401,1,1,1,1
B138,1237663230678794578,256.426786212863,78.6068773830908,4134,301,5,44,GALAXY,19.95809,18.08602,17.15499,16.69736,16.41153,1,0.7633479,0.8693255,1,0.9525829
B139,1237656565428060724,256.233766168415,78.5675548821978,2582,301,6,69,GALAXY,21.18954,18.84418,17.97236,17.57201,17.27403,0,0.6012872,0.6865756,0.7448547,0.1826293
B140,1237656565427994768,255.409936307874,78.7210799941704,2582,301,6,68,GALAXY,20.09735,17.99773,17.07455,16.63035,16.3545,0.1572832,0.861828,0.9021455,0.9479612,0.6572502
B141,1237656565428060680,255.801461974351,78.5524326219355,2582,301,6,69,GALAXY,18.86958,17.03963,16.12898,15.71601,15.36342,0.9998593,0.989913,1,1,1
B142,1237656565427994913,255.544074055007,78.7580065834228,2582,301,6,68,GALAXY,18.31011,16.45374,15.65523,15.274,14.9749,0.6184747,0.7916992,0.846108,0.9246225,1
B143,1237656565428060658,255.659853491439,78.5593527858003,2582,301,6,69,GALAXY,19.10592,17.12495,16.20686,15.76658,15.41648,1,0.8689069,0.8817303,0.9078689,0.9245457
B144,1237656565428125886,255.994628870351,78.542798970565,2582,301,6,70,GALAXY,19.73934,17.82611,16.89454,16.4583,16.09559,1,1,1,1,1
B145,1237656565427994911,255.521753866585,78.7625712024325,2582,301,6,68,GALAXY,18.2237,16.3494,15.45992,15.03567,14.70695,1,0.9925478,0.9998239,1,1
B146,1237663269868929180,255.895202124677,78.7943663854602,4143,301,6,22,GALAXY,17.9704,16.14037,15.20471,14.76307,14.42397,1,1,1,1,1
B147,1237663269868929492,256.07115799069,78.7925382000789,4143,301,6,22,GALAXY,19.49955,17.51559,16.61749,16.21049,15.90737,0.7265174,0.9655545,0.8502179,0.8295169,0.8811763
B148,1237656565428125905,256.024280910068,78.5305980402558,2582,301,6,70,GALAXY,20.56613,18.59702,17.68305,17.24966,16.93588,0,0.4657701,0.4542841,0.4751345,0.4425564
B149,1237656565427994733,255.294336055726,78.7264888686156,2582,301,6,68,GALAXY,19.81532,17.46172,16.51646,16.06746,15.6901,0.8152558,0,0,0,0
B150,1237663230678729664,256.355929414175,78.5587808154304,4134,301,5,43,GALAXY,21.79875,20.34196,19.70846,19.33965,19.44281,0,0,0.3925624,0.3278963,0.09887077
B151,1237656565428125739,256.173522720612,78.5356515826532,2582,301,6,70,GALAXY,19.8592,17.87535,16.95991,16.52481,16.179,1,0.8184735,0.8547302,0.9053214,0.9841094
B152,1237656565428125912,256.241066604703,78.5402765552115,2582,301,6,70,GALAXY,19.33901,17.36198,16.40614,15.97773,15.6023,0.7683141,0.976454,0.9611065,1,1
B153,1237663269868994903,256.633297361523,78.7022269309194,4143,301,6,23,GALAXY,19.90407,18.40291,17.50316,17.1526,16.85856,1,0.7740957,0.7708427,0.7042719,0.6755776
B154,1237656565428060663,255.51537451078,78.5474782476495,2582,301,6,69,GALAXY,20.12362,18.4234,17.51846,17.11678,16.85921,1,0.7567302,0.7594745,0.7295709,0.7732512
B155,1237663230678729173,256.317330637019,78.5435627287312,4134,301,5,43,GALAXY,20.03918,18.11263,17.2072,16.76853,16.43994,0.2934587,0.3627785,0.5077459,0.5050154,0.5224165
B156,1237663269868994715,256.33773055331,78.7888395804434,4143,301,6,23,GALAXY,20.29443,18.6333,17.71827,17.30181,16.96226,1,1,1,1,1
B157,1237656565427994866,255.649528973867,78.8036590300838,2582,301,6,68,GALAXY,19.40278,17.43813,16.49714,16.05574,15.70412,1,1,1,1,1
B158,1237656565428060537,255.238388737899,78.6034385842347,2582,301,6,69,GALAXY,19.55101,17.75366,16.89811,16.49141,16.19047,0.9771445,1,1,1,1
B159,1237656565427995026,255.168866590581,78.6858963714624,2582,301,6,68,GALAXY,19.74709,17.95522,17.13229,16.74251,16.46716,0.8716028,0.8125017,0.7739493,0.777666,0.8703998
B160,1237656565428125881,255.645376878784,78.5244971261367,2582,301,6,70,GALAXY,20.06834,18.41961,17.73934,17.43438,17.20631,0.8737765,0.4614769,0.485489,0.4392328,0.4321104
B161,1237656565427994950,255.214281192325,78.7300654526237,2582,301,6,68,GALAXY,20.98746,18.99298,18.13068,17.72833,17.40943,0.9909551,1,0.9181416,0.7953491,0.8504006
B162,1237656565428125931,256.292858434159,78.526443238461,2582,301,6,70,GALAXY,18.96177,16.98705,16.07024,15.64869,15.30336,0.6914654,0.8619053,0.8684567,0.9151939,0.9467542
B163,1237663230678794615,256.560263348651,78.5659835336921,4134,301,5,44,GALAXY,21.06117,18.81434,17.91228,17.4994,17.1404,0,0.5650298,0.6787865,0.6202955,0.581906
B164,1237663230678794631,256.5947141938,78.572259749013,4134,301,5,44,GALAXY,20.05329,18.26925,17.41083,16.97232,16.6813,0,0.2615533,0.4361532,0.4802966,0.4475945
B165,1237663230678794285,256.681071740989,78.5881858422253,4134,301,5,44,GALAXY,21.42558,18.39852,18.06347,17.22053,17.21299,0,1,0.2759435,1,0.7163979
B166,1237656565427994764,255.098323749018,78.7018822383961,2582,301,6,68,GALAXY,18.76136,17.13664,16.34063,15.96935,15.71099,1,0.9772149,0.8863122,0.852375,0.6792632
B167,1237656565427995187,255.744383698068,78.8301670751035,2582,301,6,68,GALAXY,20.43246,18.97559,18.25603,17.91619,17.71005,0.8355381,0,0,0,0
B168,1237663230678794712,256.799301579938,78.6493620163309,4134,301,5,44,GALAXY,20.23719,18.10714,17.16234,16.7165,16.38737,1,1,1,1,1
B169,1237656565427994852,255.308225765237,78.7912547241248,2582,301,6,68,GALAXY,20.33004,18.56804,17.7911,17.43985,17.16452,0.2264848,0,0.009556933,0,0.003139616
B170,1237656565428060670,255.37723602893,78.5311203011473,2582,301,6,69,GALAXY,19.10469,17.14702,16.20522,15.78886,15.47306,0.7904449,0.6661131,0.7138987,0.7232729,0.7887921
B171,1237663230678794730,256.830428349735,78.6642075776246,4134,301,5,44,GALAXY,19.64281,17.77355,16.85551,16.42074,16.08973,1,1,1,1,1
B172,1237663230678794281,256.769837171126,78.5989721873576,4134,301,5,44,GALAXY,20.47583,18.55282,17.61024,17.16824,16.99729,0,0.4399754,0.6860874,0.7157983,0.7459253
B173,1237663230678729192,256.457556652621,78.5185431084493,4134,301,5,43,GALAXY,20.2231,18.38086,17.48595,17.05992,16.71387,0.5742373,0.7217863,0.6924021,0.7627319,0.7381339
B174,1237663230678729181,256.393755321683,78.5092943699251,4134,301,5,43,GALAXY,20.58514,18.70225,17.8327,17.41406,17.11851,1,0.6221054,0.7458562,0.7519627,0.6590937
B175,1237656565428125972,256.316243938518,78.5004927524846,2582,301,6,70,GALAXY,19.64454,17.72561,16.82129,16.4296,16.15802,1,1,1,1,1
B176,1237656565428125980,256.314679115407,78.4973011311259,2582,301,6,70,GALAXY,22.79331,20.40865,19.214,18.74862,18.38109,0.3028991,0.8269894,0.8921806,1,0.8672526
B177,1237663230678794665,256.716137598293,78.5616693129631,4134,301,5,44,GALAXY,19.62337,17.7011,16.74896,16.30258,15.98398,1,0.9072666,0.9908101,0.9450944,0.9231772
B178,1237663230678794441,256.866752495442,78.6110861847189,4134,301,5,44,GALAXY,19.04083,16.94836,15.99031,15.53896,15.21203,0.5469094,1,1,1,1
B179,1237656565428125985,256.309509115791,78.4884724831743,2582,301,6,70,GALAXY,20.16634,18.25171,17.3709,16.97262,16.70427,0.8305188,0.3054783,0.3220577,0.3954316,0.3261516
B180,1237655749380800804,255.065915609894,78.5737406768405,2392,301,6,16,GALAXY,18.8601,16.91314,16.02446,15.58957,15.25758,0.8862537,0.6934663,0.6990334,0.7480382,0.8221182
B181,1237655749380800811,255.084267237797,78.5652551269038,2392,301,6,16,GALAXY,19.15757,17.30169,16.53477,16.18591,15.87146,0.1812746,0.479987,0.5128711,0.5646864,0.5947208
B182,1237656565427994964,254.95062772706,78.7013615681743,2582,301,6,68,GALAXY,19.45415,17.74048,16.84505,16.41995,16.07979,1,1,1,1,1
B183,1237656565427929570,255.391834449384,78.8328393608717,2582,301,6,67,GALAXY,20.20278,18.57682,17.76181,17.33111,17.04303,1,0.4467843,0.4840396,0.3390069,0.2273495
B184,1237656565427994841,255.094619954046,78.7894139704487,2582,301,6,68,GALAXY,18.73635,16.64758,15.72451,15.29236,14.97981,1,1,1,1,1
B185,1237656565428126026,256.277725878982,78.4728650784137,2582,301,6,70,GALAXY,18.51277,16.55645,15.58982,15.159,14.82406,1,1,1,1,1
B186,1237656565428125936,255.527071267418,78.4725373269932,2582,301,6,70,GALAXY,19.97772,17.88477,16.97864,16.56359,16.2097,1,1,1,1,1
B187,1237663231215599984,255.858672754008,78.8787406141289,4134,301,6,43,GALAXY,19.67039,17.60378,16.66006,16.21944,15.88592,1,0.9499409,0.9549212,0.934953,0.974966
B188,1237656565427994897,254.880307222456,78.7235222952491,2582,301,6,68,GALAXY,20.06847,17.92933,17.0528,16.63116,16.28647,1,1,1,1,1
B189,1237656565427929230,255.215899113749,78.8304326166442,2582,301,6,67,GALAXY,18.95624,16.93822,15.98933,15.53758,15.14877,1,1,1,1,1
B190,1237663230678794639,256.723112121015,78.5154344875811,4134,301,5,44,GALAXY,18.68308,16.8239,15.90601,15.44015,15.09033,1,1,1,1,1
B191,1237663230678794767,257.023820043009,78.6263755855941,4134,301,5,44,GALAXY,18.88446,16.93374,16.0461,15.62081,15.30215,0.8611916,1,1,1,1
B192,1237655749380800723,255.116713470822,78.5162441536777,2392,301,6,16,GALAXY,20.5833,18.9348,18.12124,17.72772,17.51589,0.0475857,0.1573998,0.4473292,0.4493504,0.4841777
B193,1237656565428125999,255.820910595429,78.4463695204286,2582,301,6,70,GALAXY,19.4855,17.61514,16.73911,16.3388,16.01581,1,1,1,1,1
B194,1237656565428126036,256.034238419905,78.4462632447859,2582,301,6,70,GALAXY,20.31729,18.51105,17.64357,17.25419,16.92994,0,0.4323156,0.4756241,0.4812257,0.5296564
B195,1237655749380800722,255.106535352956,78.5109541794243,2392,301,6,16,GALAXY,18.68811,16.81916,15.97359,15.55946,15.24635,0.29974,0.5784274,0.6810839,0.6972883,0.7364623
B196,1237655749380800758,254.798554349915,78.6204667301658,2392,301,6,16,GALAXY,19.95371,18.15891,17.3203,16.87354,16.54535,0,0.92227,0.8593726,0.9182741,1
B197,1237663230678794739,257.040594707287,78.5711603490671,4134,301,5,44,GALAXY,19.10082,17.30544,16.48144,16.11244,15.82807,0.596301,0.6043538,0.5467449,0.5594933,0.6312901
B198,1237663230678860028,257.149680673794,78.6755365065229,4134,301,5,45,GALAXY,19.8252,18.32078,17.4879,17.05494,16.74176,0.5603546,0.08435444,0.1047686,0.1170072,0.2178656
B199,1237656565427929222,255.030746223716,78.8309971607362,2582,301,6,67,GALAXY,19.75842,18.02196,17.22181,16.81705,16.49601,0.07691296,0.6742941,0.5351797,0.5860539,0.5099844
B200,1237663230678794356,256.707613580292,78.4777617074823,4134,301,5,44,GALAXY,19.3882,17.51024,16.69234,16.30568,16.03815,0.8909689,0.8546891,0.903838,0.9695071,1
B201,1237656565427929383,255.444432286356,78.8924352503687,2582,301,6,67,GALAXY,19.19805,17.5016,16.67263,16.27908,15.94539,0.4984151,0.321025,0.3856816,0.4311233,0.4886453
B202,1237656565428126076,256.116522323174,78.4221646562293,2582,301,6,70,GALAXY,20.4828,18.64881,17.83126,17.47391,17.12088,0.2276547,0.4185331,0.401888,0.3981569,0.3956552
B203,1237663269868994874,257.058347028425,78.7802986627932,4143,301,6,23,GALAXY,20.58723,18.92767,18.0414,17.6851,17.3029,1,0.9077036,0.7424589,0.7505063,0.9726591
B204,1237663230678794671,256.870838776823,78.5024949093198,4134,301,5,44,GALAXY,20.64015,18.85681,17.94631,17.52628,17.22685,1,0.8118492,0.908832,0.8627573,0.8442754
B205,1237663230678794764,257.102850244296,78.5748269332815,4134,301,5,44,GALAXY,20.52091,18.57075,17.64691,17.22725,16.89612,0,0.8712251,1,1,1
B206,1237663230678794794,257.193851681331,78.6177155034581,4134,301,5,44,GALAXY,20.28984,18.40164,17.51903,17.07212,16.75224,1,0.5265334,0.5009452,0.6110954,0.4807605
B207,1237656565427929433,254.831461947294,78.8064270494467,2582,301,6,67,GALAXY,20.04147,18.11522,17.23411,16.80965,16.48246,0.6801683,0.2530659,0.4143996,0.5064256,0.7335835
B208,1237655749380735320,254.721475808435,78.7712834725131,2392,301,6,15,GALAXY,21.04123,19.13127,18.29458,17.82003,17.5097,0.8274401,0.988137,0.8574998,0.8700945,0.8620607
B209,1237656565427929363,255.615844792672,78.9182568395192,2582,301,6,67,GALAXY,19.74908,17.97789,17.12373,16.72055,16.40463,1,1,1,1,1
B210,1237663230678794776,257.190201753326,78.5678024334105,4134,301,5,44,GALAXY,19.44652,17.60703,16.70016,16.26372,15.93673,1,1,1,0.980091,1
B211,1237663231215665527,256.377537238291,78.9210963883627,4134,301,6,44,GALAXY,21.39204,19.48201,18.65464,18.25656,17.95528,1,1,1,1,1
B212,1237663230678860058,257.311579917214,78.6365054058075,4134,301,5,45,GALAXY,19.34291,17.52194,16.64138,16.21676,15.91376,0,0.374001,0.3985917,0.4849801,0.5317755
B213,1237655749380735288,254.519882820615,78.6607913302641,2392,301,6,15,GALAXY,20.50114,18.40192,17.46674,17.10783,16.78626,0,0.7837418,0.8405514,0.7471413,0.6165018
B214,1237655749380735238,254.539421175076,78.718264144526,2392,301,6,15,GALAXY,20.40955,18.40609,17.56206,17.13669,16.90287,0,0.7205972,0.8164699,0.9203147,0.5425929
B215,1237663269868994850,256.807152167748,78.8884062380702,4143,301,6,23,GALAXY,18.32798,16.51618,15.58707,15.15316,14.76468,0.9350358,1,1,1,1
B216,1237663230678860083,257.351262995314,78.7049976860598,4134,301,5,45,GALAXY,18.76228,16.87249,15.95004,15.49083,15.1819,0.592957,0.7040488,0.7484252,0.8546644,0.9149702
B217,1237655749380735302,254.484049119973,78.6418541325777,2392,301,6,15,GALAXY,20.50808,18.89981,18.01253,17.67199,17.33985,1,1,1,1,1
B218,1237663230678794506,257.25309589819,78.5504940341421,4134,301,5,44,GALAXY,20.05766,17.21518,16.34203,15.88842,15.6918,0,0,0,0,0
B219,1237663269868994666,256.837624541765,78.8939525781986,4143,301,6,23,GALAXY,19.75941,17.69366,16.75724,16.37802,15.9954,0.7326974,0.7166511,0.8558436,0.6957415,0.980317
B220,1237656565428191392,256.149939358974,78.3800326979096,2582,301,6,71,GALAXY,20.00043,18.10695,17.22041,16.78821,16.46176,1,1,1,1,1
B221,1237655749380735309,254.471339979814,78.6235798608779,2392,301,6,15,GALAXY,19.736,18.3257,17.65921,17.32753,17.11674,1,1,1,0.9963836,1
B222,1237663230678860106,257.44600452128,78.6933808856329,4134,301,5,45,GALAXY,19.17595,17.16746,16.22058,15.75923,15.41184,1,1,1,1,1
B223,1237663269869060317,257.376242029421,78.7626770504119,4143,301,6,24,GALAXY,19.95523,18.38684,17.49159,17.11728,16.76283,1,1,1,1,1
B224,1237655749380800755,254.426062354602,78.5920168763247,2392,301,6,16,GALAXY,19.54803,17.48457,16.59538,16.15301,15.8209,1,0.8568354,0.8302333,0.8578504,0.9160828
B225,1237656565428191424,256.459977673219,78.3762766937835,2582,301,6,71,GALAXY,18.81215,16.72105,15.79405,15.37456,15.03762,1,1,1,1,1
B226,1237656565428191445,256.354463975013,78.3668332129933,2582,301,6,71,GALAXY,19.32005,17.47872,16.59769,16.18888,15.82618,0.7903419,0.9862879,0.9936713,0.9488536,1
B227,1237663230678860039,257.441389919101,78.552055683511,4134,301,5,45,GALAXY,20.14231,17.99384,17.06985,16.60383,16.30067,0,1,1,1,1
B228,1237656565427929291,255.165848765504,78.9501588287171,2582,301,6,67,GALAXY,19.07225,18.05849,17.75862,17.52944,17.36284,0.2323583,0.4568478,0.5267752,0.5187949,0.485536
B229,1237663230678860112,257.559708565096,78.6570056513154,4134,301,5,45,GALAXY,18.99637,17.02055,16.06566,15.58908,15.22445,1,0.8900954,0.9914252,0.9939671,0.9534849
B230,1237655749380735264,254.257865094493,78.6573894887344,2392,301,6,15,GALAXY,19.34299,17.35854,16.44774,16.01936,15.67107,0.6081501,0.2054724,0.2909874,0.3455109,0.4660164
B231,1237663269332058434,256.645841732084,78.3656185820794,4143,301,5,22,GALAXY,19.78271,17.99246,17.1025,16.66944,16.38056,1,1,1,1,1
B232,1237655749380670068,254.323472396567,78.7849011982458,2392,301,6,14,GALAXY,20.92768,18.8176,18.03934,17.66556,17.39955,0,0.1164521,0.1947962,0.28827,0.5575099
B233,1237663269869060336,257.291305995407,78.8754983298812,4143,301,6,24,GALAXY,17.65689,16.23521,15.53927,15.14532,14.85699,0,0,0.03546968,0.08302391,0.1472472
B234,1237663269332123864,257.198236687365,78.4324122007854,4143,301,5,23,GALAXY,19.01929,17.41553,16.7017,16.32695,16.03569,0.9827088,0.7357577,0.653865,0.5278153,0.4828587
B235,1237655749380866230,254.694959155505,78.4226384432829,2392,301,6,17,GALAXY,17.64446,16.01059,15.20762,14.77478,14.46075,0,0.2477522,0.3827922,0.3937273,0.5861119
B236,1237656565427929575,254.716198597557,78.9202642793489,2582,301,6,67,GALAXY,20.46265,19.08747,18.5715,18.2221,17.87515,0,0,0,0,0
B237,1237655749380800778,254.272514044113,78.5466223818867,2392,301,6,16,GALAXY,18.76959,16.668,15.71555,15.24953,14.87034,0.8596711,0.9920495,0.967002,0.9810203,1
B238,1237655749380735301,254.17058747623,78.6180864346602,2392,301,6,15,GALAXY,19.62954,17.65156,16.73184,16.33838,16.0084,1,0.9481965,1,0.9859162,0.9775462
B239,1237663230678860096,257.639536824944,78.5650047447593,4134,301,5,45,GALAXY,19.43683,17.31149,16.35514,15.88939,15.54328,0.5628964,1,1,1,1
B240,1237655749380669721,254.198282077764,78.7826884714136,2392,301,6,14,GALAXY,18.40341,16.76623,15.94651,15.53166,15.20448,0.4384514,0.6889344,0.79919,0.9020529,0.9543287
B241,1237656565427864068,254.95592394529,78.9722774786379,2582,301,6,66,GALAXY,19.99234,18.72859,18.12274,17.72529,17.50102,0.5262579,0,0,0,0.03129958
B242,1237663269332123998,257.173445282849,78.3958850262743,4143,301,5,23,GALAXY,19.91475,18.3178,17.51833,17.12222,16.7981,0.7008379,0.2497196,0.1504762,0.2330312,0.1131829
B243,1237663230678859846,257.703043609721,78.5382049562717,4134,301,5,45,GALAXY,18.05959,16.14592,15.22244,14.77907,14.45979,0.4230765,0.7188504,0.705593,0.7819315,0.8413743
B244,1237663269332123802,257.097094071913,78.3742675544433,4143,301,5,23,GALAXY,19.19571,17.59415,16.89667,16.58955,16.32833,0.6459132,0.3819453,0.3704906,0.3899688,0.3351131
B245,1237656565427863896,255.045867581799,79.0042603307983,2582,301,6,66,GALAXY,19.08374,17.19483,16.27632,15.85556,15.50074,1,0.9500864,0.9876004,1,1
B246,1237663269332189441,257.630857115407,78.486024189744,4143,301,5,24,GALAXY,18.78103,17.19373,16.34775,15.9318,15.59084,0.7939145,0.2110061,0.3256966,0.4064114,0.4741533
B247,1237663231215599942,255.46753333526,79.0331265877654,4134,301,6,43,GALAXY,23.69357,19.86053,19.06125,18.95293,19.15292,1,0,0,0,0
B248,1237655749380931763,255.530250181092,78.2916473688258,2392,301,6,18,GALAXY,17.58876,16.20329,15.52805,15.11977,14.84258,0.5059974,0.3427439,0.3954791,0.608196,0.7933962
B249,1237663269332058446,256.811573883024,78.3199450515083,4143,301,5,22,GALAXY,19.54422,17.84336,16.99631,16.62917,16.33219,1,0.4324421,0.4944684,0.48175,0.6596505
B250,1237655749380800776,254.078446496726,78.535483214624,2392,301,6,16,GALAXY,19.74065,17.77272,16.88198,16.47707,16.10212,1,0.9176633,0.9499905,0.9354222,0.9687468
B251,1237655749380669716,253.996562807109,78.7713326564705,2392,301,6,14,STAR,21.87004,19.21825,17.83778,17.1843,16.79099,0,0,1,1,1
B252,1237663231215730858,256.60080134207,79.0439153835314,4134,301,6,45,GALAXY,20.08815,18.49265,17.71762,17.32719,17.03275,1,1,1,1,1
B253,1237663230678860165,257.956513739061,78.5976960361179,4134,301,5,45,GALAXY,19.4381,17.62077,16.66789,16.23673,15.8953,0.2136433,0.8124633,0.8646146,0.925463,0.89889
B254,1237663269332123867,257.313026728685,78.3664974672147,4143,301,5,23,GALAXY,19.40078,17.6317,16.8362,16.4738,16.25022,1,0.9094924,0.8611065,0.8183555,0.584829
B255,1237663269332123887,257.341529005579,78.3682926997007,4143,301,5,23,GALAXY,19.50144,17.59355,16.67501,16.26137,15.96785,1,1,1,1,1